Cases,engine/SERP,academia,government,news,scicomm,other
Case1,68,127,32,88,NA,205
Case2,82,246,192,28,16,NA
Case3,104,31,296,NA,NA,127
Case4,25,NA,206,NA,311,9
Case5,74,NA,NA,68,277,NA
Case6,144,46,76,256,23,NA
Case7,70,310,NA,NA,135,NA
Case8,234,NA,169,4,117,57
Case9,120,208,37,NA,249,NA
Case10,133,136,3,NA,257,NA
