fromState,toState,nrOfTransitions.x,propOfTransitions.x,nrOfTransitions.y,propOfTransitions.y,nrOfTransitions.x.x,propOfTransitions.x.x,nrOfTransitions.y.y,propOfTransitions.y.y,nrOfTransitions.x.x.x,propOfTransitions.x.x.x,nrOfTransitions.y.y.y,propOfTransitions.y.y.y,nrOfTransitions.x.x.x.x,propOfTransitions.x.x.x.x,nrOfTransitions.y.y.y.y,propOfTransitions.y.y.y.y,nrOfTransitions.x.x.x.x.x,propOfTransitions.x.x.x.x.x,nrOfTransitions.y.y.y.y.y,propOfTransitions.y.y.y.y.y,nrOfTransitions.x.x.x.x.x.x,propOfTransitions.x.x.x.x.x.x,nrOfTransitions.y.y.y.y.y.y,propOfTransitions.y.y.y.y.y.y,nrOfTransitions.x.x.x.x.x.x.x,propOfTransitions.x.x.x.x.x.x.x,nrOfTransitions.y.y.y.y.y.y.y,propOfTransitions.y.y.y.y.y.y.y,nrOfTransitions.x.x.x.x.x.x.x.x,propOfTransitions.x.x.x.x.x.x.x.x,nrOfTransitions.y.y.y.y.y.y.y.y,propOfTransitions.y.y.y.y.y.y.y.y,nrOfTransitions.x.x.x.x.x.x.x.x.x,propOfTransitions.x.x.x.x.x.x.x.x.x,nrOfTransitions.y.y.y.y.y.y.y.y.y,propOfTransitions.y.y.y.y.y.y.y.y.y,nrOfTransitions.x.x.x.x.x.x.x.x.x.x,propOfTransitions.x.x.x.x.x.x.x.x.x.x,nrOfTransitions.y.y.y.y.y.y.y.y.y.y,propOfTransitions.y.y.y.y.y.y.y.y.y.y,nrOfTransitions.x.x.x.x.x.x.x.x.x.x.x,propOfTransitions.x.x.x.x.x.x.x.x.x.x.x,nrOfTransitions.y.y.y.y.y.y.y.y.y.y.y,propOfTransitions.y.y.y.y.y.y.y.y.y.y.y,nrOfTransitions.x.x.x.x.x.x.x.x.x.x.x.x,propOfTransitions.x.x.x.x.x.x.x.x.x.x.x.x,nrOfTransitions.y.y.y.y.y.y.y.y.y.y.y.y,propOfTransitions.y.y.y.y.y.y.y.y.y.y.y.y,nrOfTransitions.x.x.x.x.x.x.x.x.x.x.x.x.x,propOfTransitions.x.x.x.x.x.x.x.x.x.x.x.x.x,nrOfTransitions.y.y.y.y.y.y.y.y.y.y.y.y.y,propOfTransitions.y.y.y.y.y.y.y.y.y.y.y.y.y,nrOfTransitions.x.x.x.x.x.x.x.x.x.x.x.x.x.x,propOfTransitions.x.x.x.x.x.x.x.x.x.x.x.x.x.x,nrOfTransitions.y.y.y.y.y.y.y.y.y.y.y.y.y.y,propOfTransitions.y.y.y.y.y.y.y.y.y.y.y.y.y.y,nrOfTransitions.x.x.x.x.x.x.x.x.x.x.x.x.x.x.x,propOfTransitions.x.x.x.x.x.x.x.x.x.x.x.x.x.x.x,nrOfTransitions.y.y.y.y.y.y.y.y.y.y.y.y.y.y.y,propOfTransitions.y.y.y.y.y.y.y.y.y.y.y.y.y.y.y,nrOfTransitions.x.x.x.x.x.x.x.x.x.x.x.x.x.x.x.x,propOfTransitions.x.x.x.x.x.x.x.x.x.x.x.x.x.x.x.x,nrOfTransitions.y.y.y.y.y.y.y.y.y.y.y.y.y.y.y.y,propOfTransitions.y.y.y.y.y.y.y.y.y.y.y.y.y.y.y.y,nrOfTransitions.x.x.x.x.x.x.x.x.x.x.x.x.x.x.x.x.x,propOfTransitions.x.x.x.x.x.x.x.x.x.x.x.x.x.x.x.x.x,nrOfTransitions.y.y.y.y.y.y.y.y.y.y.y.y.y.y.y.y.y,propOfTransitions.y.y.y.y.y.y.y.y.y.y.y.y.y.y.y.y.y,nrOfTransitions.x.x.x.x.x.x.x.x.x.x.x.x.x.x.x.x.x.x,propOfTransitions.x.x.x.x.x.x.x.x.x.x.x.x.x.x.x.x.x.x,nrOfTransitions.y.y.y.y.y.y.y.y.y.y.y.y.y.y.y.y.y.y,propOfTransitions.y.y.y.y.y.y.y.y.y.y.y.y.y.y.y.y.y.y,nrOfTransitions.x.x.x.x.x.x.x.x.x.x.x.x.x.x.x.x.x.x.x,propOfTransitions.x.x.x.x.x.x.x.x.x.x.x.x.x.x.x.x.x.x.x,nrOfTransitions.y.y.y.y.y.y.y.y.y.y.y.y.y.y.y.y.y.y.y,propOfTransitions.y.y.y.y.y.y.y.y.y.y.y.y.y.y.y.y.y.y.y,nrOfTransitions.x.x.x.x.x.x.x.x.x.x.x.x.x.x.x.x.x.x.x.x,propOfTransitions.x.x.x.x.x.x.x.x.x.x.x.x.x.x.x.x.x.x.x.x,nrOfTransitions.y.y.y.y.y.y.y.y.y.y.y.y.y.y.y.y.y.y.y.y,propOfTransitions.y.y.y.y.y.y.y.y.y.y.y.y.y.y.y.y.y.y.y.y,nrOfTransitions,propOfTransitions
academia,academia,5,0.555555556,0,0,NA,NA,2,0.285714286,2,0.5,NA,NA,0,0,0,0,5,0.384615385,NA,NA,0,0,0,0,0,0,NA,NA,NA,NA,0,0,1,0.333333333,NA,NA,2,1,8,0.615384615,8,0.615384615,5,0.555555556,0,0,NA,NA,2,0.285714286,2,0.5,NA,NA,0,0,0,0,5,0.384615385,NA,NA,0,0,0,0,0,0,NA,NA,NA,NA,0,0,1,0.333333333,NA,NA,2,1,8,0.615384615
academia,engine_SERP,4,0.444444444,0,0,NA,NA,5,0.714285714,2,0.5,NA,NA,1,0.5,1,0.5,5,0.384615385,NA,NA,1,0.5,1,0.5,0,0,NA,NA,NA,NA,0,0,2,0.666666667,NA,NA,0,0,2,0.153846154,2,0.153846154,4,0.444444444,0,0,NA,NA,5,0.714285714,2,0.5,NA,NA,1,0.5,1,0.5,5,0.384615385,NA,NA,1,0.5,1,0.5,0,0,NA,NA,NA,NA,0,0,2,0.666666667,NA,NA,0,0,2,0.153846154
academia,government,NA,NA,1,1,NA,NA,0,0,0,0,NA,NA,0,0,0,0,NA,NA,NA,NA,0,0,1,0.5,1,1,NA,NA,NA,NA,0,0,NA,NA,NA,NA,0,0,0,0,0,0,NA,NA,1,1,NA,NA,0,0,0,0,NA,NA,0,0,0,0,NA,NA,NA,NA,0,0,1,0.5,1,1,NA,NA,NA,NA,0,0,NA,NA,NA,NA,0,0,0,0
academia,news,NA,NA,0,0,NA,NA,0,0,NA,NA,NA,NA,1,0.5,0,0,1,0.076923077,NA,NA,1,0.5,0,0,NA,NA,NA,NA,NA,NA,1,1,NA,NA,NA,NA,NA,NA,NA,NA,NA,NA,NA,NA,0,0,NA,NA,0,0,NA,NA,NA,NA,1,0.5,0,0,1,0.076923077,NA,NA,1,0.5,0,0,NA,NA,NA,NA,NA,NA,1,1,NA,NA,NA,NA,NA,NA,NA,NA
academia,other,NA,NA,NA,NA,NA,NA,NA,NA,NA,NA,NA,NA,NA,NA,NA,NA,NA,NA,NA,NA,0,0,NA,NA,0,0,NA,NA,NA,NA,NA,NA,NA,NA,NA,NA,NA,NA,NA,NA,NA,NA,NA,NA,NA,NA,NA,NA,NA,NA,NA,NA,NA,NA,NA,NA,NA,NA,NA,NA,NA,NA,0,0,NA,NA,0,0,NA,NA,NA,NA,NA,NA,NA,NA,NA,NA,NA,NA,NA,NA
academia,scicomm,NA,NA,0,0,NA,NA,0,0,NA,NA,NA,NA,0,0,1,0.5,2,0.153846154,NA,NA,NA,NA,0,0,NA,NA,NA,NA,NA,NA,0,0,0,0,NA,NA,0,0,3,0.230769231,3,0.230769231,NA,NA,0,0,NA,NA,0,0,NA,NA,NA,NA,0,0,1,0.5,2,0.153846154,NA,NA,NA,NA,0,0,NA,NA,NA,NA,NA,NA,0,0,0,0,NA,NA,0,0,3,0.230769231
engine_SERP,academia,5,0.454545455,0,0,NA,NA,5,0.25,2,0.125,NA,NA,1,0.25,1,0.125,7,0.25,NA,NA,0,0,0,0,1,0.083333333,NA,NA,NA,NA,0,0,2,0.333333333,NA,NA,0,0,2,0.285714286,2,0.285714286,5,0.454545455,0,0,NA,NA,5,0.25,2,0.125,NA,NA,1,0.25,1,0.125,7,0.25,NA,NA,0,0,0,0,1,0.083333333,NA,NA,NA,NA,0,0,2,0.333333333,NA,NA,0,0,2,0.285714286
engine_SERP,engine_SERP,6,0.545454545,6,0.545454545,1,0.25,9,0.45,13,0.8125,2,0.4,1,0.25,4,0.5,20,0.714285714,2,0.666666667,0,0,2,0.333333333,6,0.5,1,0.333333333,5,0.416666667,6,0.5,3,0.5,11,0.6875,2,0.4,3,0.428571429,3,0.428571429,6,0.545454545,6,0.545454545,1,0.25,9,0.45,13,0.8125,2,0.4,1,0.25,4,0.5,20,0.714285714,2,0.666666667,0,0,2,0.333333333,6,0.5,1,0.333333333,5,0.416666667,6,0.5,3,0.5,11,0.6875,2,0.4,3,0.428571429
engine_SERP,government,NA,NA,3,0.272727273,0,0,2,0.1,1,0.0625,2,0.4,0,0,1,0.125,NA,NA,0,0,1,0.333333333,2,0.333333333,3,0.25,1,0.333333333,NA,NA,1,0.083333333,NA,NA,3,0.1875,1,0.2,1,0.142857143,1,0.142857143,NA,NA,3,0.272727273,0,0,2,0.1,1,0.0625,2,0.4,0,0,1,0.125,NA,NA,0,0,1,0.333333333,2,0.333333333,3,0.25,1,0.333333333,NA,NA,1,0.083333333,NA,NA,3,0.1875,1,0.2,1,0.142857143
engine_SERP,news,NA,NA,0,0,1,0.25,2,0.1,NA,NA,NA,NA,0,0,2,0.25,1,0.035714286,0,0,1,0.333333333,1,0.166666667,NA,NA,NA,NA,1,0.083333333,4,0.333333333,NA,NA,1,0.0625,NA,NA,NA,NA,NA,NA,NA,NA,0,0,1,0.25,2,0.1,NA,NA,NA,NA,0,0,2,0.25,1,0.035714286,0,0,1,0.333333333,1,0.166666667,NA,NA,NA,NA,1,0.083333333,4,0.333333333,NA,NA,1,0.0625,NA,NA,NA,NA
engine_SERP,other,NA,NA,NA,NA,NA,NA,NA,NA,NA,NA,NA,NA,NA,NA,NA,NA,NA,NA,NA,NA,1,0.333333333,NA,NA,2,0.166666667,NA,NA,NA,NA,NA,NA,NA,NA,0,0,NA,NA,NA,NA,NA,NA,NA,NA,NA,NA,NA,NA,NA,NA,NA,NA,NA,NA,NA,NA,NA,NA,NA,NA,NA,NA,1,0.333333333,NA,NA,2,0.166666667,NA,NA,NA,NA,NA,NA,NA,NA,0,0,NA,NA,NA,NA
engine_SERP,scicomm,NA,NA,2,0.181818182,2,0.5,2,0.1,NA,NA,1,0.2,2,0.5,0,0,0,0,1,0.333333333,NA,NA,1,0.166666667,NA,NA,1,0.333333333,6,0.5,1,0.083333333,1,0.166666667,1,0.0625,2,0.4,1,0.142857143,1,0.142857143,NA,NA,2,0.181818182,2,0.5,2,0.1,NA,NA,1,0.2,2,0.5,0,0,0,0,1,0.333333333,NA,NA,1,0.166666667,NA,NA,1,0.333333333,6,0.5,1,0.083333333,1,0.166666667,1,0.0625,2,0.4,1,0.142857143
government,academia,NA,NA,0,0,NA,NA,0,0,0,0,NA,NA,1,0.333333333,0,0,NA,NA,NA,NA,0,0,0,0,0,0,NA,NA,NA,NA,0,0,NA,NA,NA,NA,0,0,1,1,1,1,NA,NA,0,0,NA,NA,0,0,0,0,NA,NA,1,0.333333333,0,0,NA,NA,NA,NA,0,0,0,0,0,0,NA,NA,NA,NA,0,0,NA,NA,NA,NA,0,0,1,1
government,engine_SERP,NA,NA,3,0.272727273,1,1,2,1,0,0,2,0.5,0,0,1,0.5,NA,NA,0,0,1,1,2,0.333333333,4,0.8,1,0.5,NA,NA,1,0.25,NA,NA,3,0.6,2,1,0,0,0,0,NA,NA,3,0.272727273,1,1,2,1,0,0,2,0.5,0,0,1,0.5,NA,NA,0,0,1,1,2,0.333333333,4,0.8,1,0.5,NA,NA,1,0.25,NA,NA,3,0.6,2,1,0,0
government,government,NA,NA,7,0.636363636,0,0,0,0,3,1,2,0.5,1,0.333333333,1,0.5,NA,NA,0,0,0,0,3,0.5,1,0.2,1,0.5,NA,NA,2,0.5,NA,NA,1,0.2,0,0,0,0,0,0,NA,NA,7,0.636363636,0,0,0,0,3,1,2,0.5,1,0.333333333,1,0.5,NA,NA,0,0,0,0,3,0.5,1,0.2,1,0.5,NA,NA,2,0.5,NA,NA,1,0.2,0,0,0,0
government,news,NA,NA,1,0.090909091,0,0,0,0,NA,NA,NA,NA,1,0.333333333,0,0,NA,NA,1,1,0,0,1,0.166666667,NA,NA,NA,NA,NA,NA,0,0,NA,NA,0,0,NA,NA,NA,NA,NA,NA,NA,NA,1,0.090909091,0,0,0,0,NA,NA,NA,NA,1,0.333333333,0,0,NA,NA,1,1,0,0,1,0.166666667,NA,NA,NA,NA,NA,NA,0,0,NA,NA,0,0,NA,NA,NA,NA
government,other,NA,NA,NA,NA,NA,NA,NA,NA,NA,NA,NA,NA,NA,NA,NA,NA,NA,NA,NA,NA,0,0,NA,NA,0,0,NA,NA,NA,NA,NA,NA,NA,NA,0,0,NA,NA,NA,NA,NA,NA,NA,NA,NA,NA,NA,NA,NA,NA,NA,NA,NA,NA,NA,NA,NA,NA,NA,NA,NA,NA,0,0,NA,NA,0,0,NA,NA,NA,NA,NA,NA,NA,NA,0,0,NA,NA,NA,NA
government,scicomm,NA,NA,0,0,0,0,0,0,NA,NA,0,0,0,0,0,0,NA,NA,0,0,NA,NA,0,0,NA,NA,0,0,NA,NA,1,0.25,NA,NA,1,0.2,0,0,0,0,0,0,NA,NA,0,0,0,0,0,0,NA,NA,0,0,0,0,0,0,NA,NA,0,0,NA,NA,0,0,NA,NA,0,0,NA,NA,1,0.25,NA,NA,1,0.2,0,0,0,0
news,academia,NA,NA,0,0,NA,NA,0,0,NA,NA,NA,NA,0,0,1,0.5,0,0,NA,NA,2,0.666666667,2,1,NA,NA,NA,NA,NA,NA,1,0.2,NA,NA,NA,NA,NA,NA,NA,NA,NA,NA,NA,NA,0,0,NA,NA,0,0,NA,NA,NA,NA,0,0,1,0.5,0,0,NA,NA,2,0.666666667,2,1,NA,NA,NA,NA,NA,NA,1,0.2,NA,NA,NA,NA,NA,NA,NA,NA
news,engine_SERP,NA,NA,1,1,0,NA,2,1,NA,NA,NA,NA,0,0,1,0.5,2,0.666666667,0,0,0,0,0,0,NA,NA,NA,NA,1,1,3,0.6,NA,NA,0,0,NA,NA,NA,NA,NA,NA,NA,NA,1,1,0,NA,2,1,NA,NA,NA,NA,0,0,1,0.5,2,0.666666667,0,0,0,0,0,0,NA,NA,NA,NA,1,1,3,0.6,NA,NA,0,0,NA,NA,NA,NA
news,government,NA,NA,0,0,0,NA,0,0,NA,NA,NA,NA,1,1,0,0,NA,NA,0,0,0,0,0,0,NA,NA,NA,NA,NA,NA,0,0,NA,NA,1,1,NA,NA,NA,NA,NA,NA,NA,NA,0,0,0,NA,0,0,NA,NA,NA,NA,1,1,0,0,NA,NA,0,0,0,0,0,0,NA,NA,NA,NA,NA,NA,0,0,NA,NA,1,1,NA,NA,NA,NA
news,news,NA,NA,0,0,0,NA,0,0,NA,NA,NA,NA,0,0,0,0,1,0.333333333,0,0,1,0.333333333,0,0,NA,NA,NA,NA,0,0,1,0.2,NA,NA,0,0,NA,NA,NA,NA,NA,NA,NA,NA,0,0,0,NA,0,0,NA,NA,NA,NA,0,0,0,0,1,0.333333333,0,0,1,0.333333333,0,0,NA,NA,NA,NA,0,0,1,0.2,NA,NA,0,0,NA,NA,NA,NA
news,other,NA,NA,NA,NA,NA,NA,NA,NA,NA,NA,NA,NA,NA,NA,NA,NA,NA,NA,NA,NA,0,0,NA,NA,NA,NA,NA,NA,NA,NA,NA,NA,NA,NA,0,0,NA,NA,NA,NA,NA,NA,NA,NA,NA,NA,NA,NA,NA,NA,NA,NA,NA,NA,NA,NA,NA,NA,NA,NA,NA,NA,0,0,NA,NA,NA,NA,NA,NA,NA,NA,NA,NA,NA,NA,0,0,NA,NA,NA,NA
news,scicomm,NA,NA,0,0,0,NA,0,0,NA,NA,NA,NA,0,0,0,0,0,0,1,1,NA,NA,0,0,NA,NA,NA,NA,0,0,0,0,NA,NA,0,0,NA,NA,NA,NA,NA,NA,NA,NA,0,0,0,NA,0,0,NA,NA,NA,NA,0,0,0,0,0,0,1,1,NA,NA,0,0,NA,NA,NA,NA,0,0,0,0,NA,NA,0,0,NA,NA,NA,NA
other,academia,NA,NA,NA,NA,NA,NA,NA,NA,NA,NA,NA,NA,NA,NA,NA,NA,NA,NA,NA,NA,0,0,NA,NA,0,0,NA,NA,NA,NA,NA,NA,NA,NA,NA,NA,NA,NA,NA,NA,NA,NA,NA,NA,NA,NA,NA,NA,NA,NA,NA,NA,NA,NA,NA,NA,NA,NA,NA,NA,NA,NA,0,0,NA,NA,0,0,NA,NA,NA,NA,NA,NA,NA,NA,NA,NA,NA,NA,NA,NA
other,engine_SERP,NA,NA,NA,NA,NA,NA,NA,NA,NA,NA,NA,NA,NA,NA,NA,NA,NA,NA,NA,NA,1,1,NA,NA,1,0.5,1,1,NA,NA,NA,NA,NA,NA,1,0.333333333,NA,NA,NA,NA,NA,NA,NA,NA,NA,NA,NA,NA,NA,NA,NA,NA,NA,NA,NA,NA,NA,NA,NA,NA,NA,NA,1,1,NA,NA,1,0.5,1,1,NA,NA,NA,NA,NA,NA,1,0.333333333,NA,NA,NA,NA
other,government,NA,NA,NA,NA,NA,NA,NA,NA,NA,NA,NA,NA,NA,NA,NA,NA,NA,NA,NA,NA,0,0,NA,NA,1,0.5,0,0,NA,NA,NA,NA,NA,NA,0,0,NA,NA,NA,NA,NA,NA,NA,NA,NA,NA,NA,NA,NA,NA,NA,NA,NA,NA,NA,NA,NA,NA,NA,NA,NA,NA,0,0,NA,NA,1,0.5,0,0,NA,NA,NA,NA,NA,NA,0,0,NA,NA,NA,NA
other,news,NA,NA,NA,NA,NA,NA,NA,NA,NA,NA,NA,NA,NA,NA,NA,NA,NA,NA,NA,NA,0,0,NA,NA,NA,NA,NA,NA,NA,NA,NA,NA,NA,NA,0,0,NA,NA,NA,NA,NA,NA,NA,NA,NA,NA,NA,NA,NA,NA,NA,NA,NA,NA,NA,NA,NA,NA,NA,NA,NA,NA,0,0,NA,NA,NA,NA,NA,NA,NA,NA,NA,NA,NA,NA,0,0,NA,NA,NA,NA
other,other,NA,NA,NA,NA,NA,NA,NA,NA,NA,NA,NA,NA,NA,NA,NA,NA,NA,NA,NA,NA,0,0,NA,NA,0,0,NA,NA,NA,NA,NA,NA,NA,NA,2,0.666666667,NA,NA,NA,NA,NA,NA,NA,NA,NA,NA,NA,NA,NA,NA,NA,NA,NA,NA,NA,NA,NA,NA,NA,NA,NA,NA,0,0,NA,NA,0,0,NA,NA,NA,NA,NA,NA,NA,NA,2,0.666666667,NA,NA,NA,NA
other,scicomm,NA,NA,NA,NA,NA,NA,NA,NA,NA,NA,NA,NA,NA,NA,NA,NA,NA,NA,NA,NA,NA,NA,NA,NA,NA,NA,0,0,NA,NA,NA,NA,NA,NA,0,0,NA,NA,NA,NA,NA,NA,NA,NA,NA,NA,NA,NA,NA,NA,NA,NA,NA,NA,NA,NA,NA,NA,NA,NA,NA,NA,NA,NA,NA,NA,NA,NA,0,0,NA,NA,NA,NA,NA,NA,0,0,NA,NA,NA,NA
scicomm,academia,NA,NA,1,1,NA,NA,0,0,NA,NA,NA,NA,0,0,0,0,1,0.5,NA,NA,NA,NA,0,NA,NA,NA,NA,NA,NA,NA,0,0,1,1,NA,NA,1,0.25,2,0.5,2,0.5,NA,NA,1,1,NA,NA,0,0,NA,NA,NA,NA,0,0,0,0,1,0.5,NA,NA,NA,NA,0,NA,NA,NA,NA,NA,NA,NA,0,0,1,1,NA,NA,1,0.25,2,0.5
scicomm,engine_SERP,NA,NA,0,0,1,0.5,1,1,NA,NA,0,0,1,0.5,1,1,1,0.5,0,0,NA,NA,0,NA,NA,NA,NA,NA,5,0.833333333,1,0.5,0,0,0,0,0,0,2,0.5,2,0.5,NA,NA,0,0,1,0.5,1,1,NA,NA,0,0,1,0.5,1,1,1,0.5,0,0,NA,NA,0,NA,NA,NA,NA,NA,5,0.833333333,1,0.5,0,0,0,0,0,0,2,0.5
scicomm,government,NA,NA,0,0,1,0.5,0,0,NA,NA,1,1,1,0.5,0,0,NA,NA,1,0.111111111,NA,NA,0,NA,NA,NA,NA,NA,NA,NA,1,0.5,NA,NA,0,0,1,0.25,0,0,0,0,NA,NA,0,0,1,0.5,0,0,NA,NA,1,1,1,0.5,0,0,NA,NA,1,0.111111111,NA,NA,0,NA,NA,NA,NA,NA,NA,NA,1,0.5,NA,NA,0,0,1,0.25,0,0
scicomm,news,NA,NA,0,0,0,0,0,0,NA,NA,NA,NA,0,0,0,0,0,0,0,0,NA,NA,0,NA,NA,NA,NA,NA,0,0,0,0,NA,NA,0,0,NA,NA,NA,NA,NA,NA,NA,NA,0,0,0,0,0,0,NA,NA,NA,NA,0,0,0,0,0,0,0,0,NA,NA,0,NA,NA,NA,NA,NA,0,0,0,0,NA,NA,0,0,NA,NA,NA,NA
scicomm,other,NA,NA,NA,NA,NA,NA,NA,NA,NA,NA,NA,NA,NA,NA,NA,NA,NA,NA,NA,NA,NA,NA,NA,NA,NA,NA,NA,NA,NA,NA,NA,NA,NA,NA,1,1,NA,NA,NA,NA,NA,NA,NA,NA,NA,NA,NA,NA,NA,NA,NA,NA,NA,NA,NA,NA,NA,NA,NA,NA,NA,NA,NA,NA,NA,NA,NA,NA,NA,NA,NA,NA,NA,NA,NA,NA,1,1,NA,NA,NA,NA
scicomm,scicomm,NA,NA,0,0,0,0,0,0,NA,NA,0,0,0,0,0,0,0,0,8,0.888888889,NA,NA,0,NA,NA,NA,NA,NA,1,0.166666667,0,0,0,0,0,0,2,0.5,0,0,0,0,NA,NA,0,0,0,0,0,0,NA,NA,0,0,0,0,0,0,0,0,8,0.888888889,NA,NA,0,NA,NA,NA,NA,NA,1,0.166666667,0,0,0,0,0,0,2,0.5,0,0
