[[sourceId=source012]]
[[streamId=SC]]
[[cid=case012]]

[[pid: patch_012_1]]
--+-{ anchor_012_1 }-+--

[[pid: patch_012_2]]
--+-{ anchor_012_2 }-+--

[[pid: patch_012_3]]
--+-{ anchor_012_3 }-+--

[[pid: patch_012_4]]
--+-{ anchor_012_4 }-+--

[[pid: patch_012_2]]
--+-{ anchor_012_5 }-+--

[[pid: patch_012_5]]
--+-{ anchor_012_6 }-+--

[[pid: patch_012_6]]
--+-{ anchor_012_7 }-+--

[[pid: patch_012_2]]
--+-{ anchor_012_8 }-+--

[[pid: patch_012_7]]
--+-{ anchor_012_9 }-+--

[[pid: patch_012_8]]
--+-{ anchor_012_10 }-+--

[[pid: patch_012_9]]
--+-{ anchor_012_11 }-+--

[[pid: patch_012_10]]
--+-{ anchor_012_12 }-+--

[[pid: patch_012_5]]
--+-{ anchor_012_13 }-+--

[[pid: patch_012_6]]
--+-{ anchor_012_14 }-+--

[[pid: patch_012_10]]
--+-{ anchor_012_15 }-+--

[[pid: patch_012_7]]
--+-{ anchor_012_16 }-+--

[[pid: patch_012_11]]
--+-{ anchor_012_17 }-+--

