[[sourceId=source017]]
[[streamId=SC]]
[[cid=case017]]

[[pid: patch_017_1]]
--+-{ anchor_017_1 }-+--

[[pid: patch_017_2]]
--+-{ anchor_017_2 }-+--

[[pid: patch_017_3]]
--+-{ anchor_017_3 }-+--

[[pid: patch_017_4]]
--+-{ anchor_017_4 }-+--

[[pid: patch_017_5]]
--+-{ anchor_017_5 }-+--

[[pid: patch_017_4]]
--+-{ anchor_017_6 }-+--

[[pid: patch_017_6]]
--+-{ anchor_017_7 }-+--

[[pid: patch_017_7]]
--+-{ anchor_017_8 }-+--

[[pid: patch_017_4]]
--+-{ anchor_017_9 }-+--

[[pid: patch_017_7]]
--+-{ anchor_017_10 }-+--

[[pid: patch_017_8]]
--+-{ anchor_017_11 }-+--

[[pid: patch_017_9]]
--+-{ anchor_017_12 }-+--

