Acad - Acad,Acad - Engine/SERP,Acad - Gov,Acad - News,Acad - Other,Acad - SciComm,Engine/SERP - Acad,Engine/SERP - Engine/SERP,Engine/SERP - Gov,Engine/SERP - News,Engine/SERP - Other,Engine/SERP - SciComm,Gov - Acad,Gov - Engine/SERP,Gov - Gov,Gov - News,Gov - Other,Gov - SciComm,News - Acad,News - Engine/SERP,News - Gov,News - News,News - Other,News - SciComm,Other - Acad,Other - Engine/SERP,Other - Gov,Other - News,Other - Other,Other - SciComm,SciComm - Acad,SciComm - Engine/SERP,SciComm - Gov,SciComm - News,SciComm - Other,SciComm - SciComm
0.555555556,0.444444444,0,0,0,0,0.454545455,0.545454545,0,0,0,0,0,0,0,0,0,0,0,0,0,0,0,0,0,0,0,0,0,0,0,0,0,0,0,0
0,0,1,0,0,0,0,0.545454545,0.272727273,0,0,0.181818182,0,0.272727273,0.636363636,0.090909091,0,0,0,1,0,0,0,0,0,0,0,0,0,0,1,0,0,0,0,0
0,0,0,0,0,0,0,0.25,0,0.25,0,0.5,0,1,0,0,0,0,0,0,0,0,0,0,0,0,0,0,0,0,0,0.5,0.5,0,0,0
0.285714286,0.714285714,0,0,0,0,0.25,0.45,0.1,0.1,0,0.1,0,1,0,0,0,0,0,1,0,0,0,0,0,0,0,0,0,0,0,1,0,0,0,0
0.5,0.5,0,0,0,0,0.125,0.8125,0.0625,0,0,0,0,0,1,0,0,0,0,0,0,0,0,0,0,0,0,0,0,0,0,0,0,0,0,0
0,0,0,0,0,0,0,0.4,0.4,0,0,0.2,0,0.5,0.5,0,0,0,0,0,0,0,0,0,0,0,0,0,0,0,0,0,1,0,0,0
0,0.5,0,0.5,0,0,0.25,0.25,0,0,0,0.5,0.333333333,0,0.333333333,0.333333333,0,0,0,0,1,0,0,0,0,0,0,0,0,0,0,0.5,0.5,0,0,0
0,0.5,0,0,0,0.5,0.125,0.5,0.125,0.25,0,0,0,0.5,0.5,0,0,0,0.5,0.5,0,0,0,0,0,0,0,0,0,0,0,1,0,0,0,0
0.384615385,0.384615385,0,0.076923077,0,0.153846154,0.25,0.714285714,0,0.035714286,0,0,0,0,0,0,0,0,0,0.666666667,0,0.333333333,0,0,0,0,0,0,0,0,0.5,0.5,0,0,0,0
0,0,0,0,0,0,0,0.666666667,0,0,0,0.333333333,0,0,0,1,0,0,0,0,0,0,0,1,0,0,0,0,0,0,0,0,0.111111111,0,0,0.888888889
1.725885227,3.043345543,1,0.576923077,0,0.653846154,1.454545455,5.134361471,0.960227273,0.635714286,0,1.815151515,0.333333333,3.272727273,2.969696969,1.424242424,0,0,0.5,3.166666667,1,0.333333333,0,1,0,0,0,0,0,0,1.5,3.5,2.111111111,0,0,0.888888889
