<?xml version='1.0' encoding='UTF-8' ?>
<svg xmlns='http://www.w3.org/2000/svg' xmlns:xlink='http://www.w3.org/1999/xlink' class='svglite' width='226.77pt' height='226.77pt' viewBox='0 0 226.77 226.77'>
<defs>
  <style type='text/css'><![CDATA[
    .svglite line, .svglite polyline, .svglite polygon, .svglite path, .svglite rect, .svglite circle {
      fill: none;
      stroke: #000000;
      stroke-linecap: round;
      stroke-linejoin: round;
      stroke-miterlimit: 10.00;
    }
    .svglite text {
      white-space: pre;
    }
  ]]></style>
</defs>
<rect width='100%' height='100%' style='stroke: none; fill: none;'/>
<defs>
  <clipPath id='cpMC4wMHwyMjYuNzd8MC4wMHwyMjYuNzc='>
    <rect x='0.00' y='0.00' width='226.77' height='226.77' />
  </clipPath>
</defs>
<g clip-path='url(#cpMC4wMHwyMjYuNzd8MC4wMHwyMjYuNzc=)'>
</g>
<defs>
  <clipPath id='cpOTUuMDl8MTk4LjUzfDUuNDh8MTk1LjI4'>
    <rect x='95.09' y='5.48' width='103.44' height='189.80' />
  </clipPath>
</defs>
<g clip-path='url(#cpOTUuMDl8MTk4LjUzfDUuNDh8MTk1LjI4)'>
<polyline points='95.09,179.52 198.53,179.52 ' style='stroke-width: 0.21; stroke: #EEEEEE; stroke-linecap: butt;' />
<polyline points='95.09,163.70 198.53,163.70 ' style='stroke-width: 0.21; stroke: #EEEEEE; stroke-linecap: butt;' />
<polyline points='95.09,147.87 198.53,147.87 ' style='stroke-width: 0.21; stroke: #EEEEEE; stroke-linecap: butt;' />
<polyline points='95.09,132.04 198.53,132.04 ' style='stroke-width: 0.21; stroke: #EEEEEE; stroke-linecap: butt;' />
<polyline points='95.09,116.21 198.53,116.21 ' style='stroke-width: 0.21; stroke: #EEEEEE; stroke-linecap: butt;' />
<polyline points='95.09,100.38 198.53,100.38 ' style='stroke-width: 0.21; stroke: #EEEEEE; stroke-linecap: butt;' />
<polyline points='95.09,84.55 198.53,84.55 ' style='stroke-width: 0.21; stroke: #EEEEEE; stroke-linecap: butt;' />
<polyline points='95.09,68.72 198.53,68.72 ' style='stroke-width: 0.21; stroke: #EEEEEE; stroke-linecap: butt;' />
<polyline points='95.09,52.89 198.53,52.89 ' style='stroke-width: 0.21; stroke: #EEEEEE; stroke-linecap: butt;' />
<polyline points='95.09,37.06 198.53,37.06 ' style='stroke-width: 0.21; stroke: #EEEEEE; stroke-linecap: butt;' />
<polyline points='95.09,21.23 198.53,21.23 ' style='stroke-width: 0.21; stroke: #EEEEEE; stroke-linecap: butt;' />
<rect x='99.80' y='45.77' width='94.03' height='14.25' style='stroke-width: 1.07; stroke: none; stroke-linecap: butt; stroke-linejoin: miter; fill: #595959;' />
<rect x='99.80' y='140.74' width='37.61' height='14.25' style='stroke-width: 1.07; stroke: none; stroke-linecap: butt; stroke-linejoin: miter; fill: #595959;' />
<rect x='99.80' y='93.25' width='56.42' height='14.25' style='stroke-width: 1.07; stroke: none; stroke-linecap: butt; stroke-linejoin: miter; fill: #595959;' />
<rect x='99.80' y='124.91' width='37.61' height='14.25' style='stroke-width: 1.07; stroke: none; stroke-linecap: butt; stroke-linejoin: miter; fill: #595959;' />
<rect x='99.80' y='77.42' width='56.42' height='14.25' style='stroke-width: 1.07; stroke: none; stroke-linecap: butt; stroke-linejoin: miter; fill: #595959;' />
<rect x='99.80' y='172.40' width='18.81' height='14.25' style='stroke-width: 1.07; stroke: none; stroke-linecap: butt; stroke-linejoin: miter; fill: #595959;' />
<rect x='99.80' y='29.94' width='94.03' height='14.25' style='stroke-width: 1.07; stroke: none; stroke-linecap: butt; stroke-linejoin: miter; fill: #595959;' />
<rect x='99.80' y='61.60' width='56.42' height='14.25' style='stroke-width: 1.07; stroke: none; stroke-linecap: butt; stroke-linejoin: miter; fill: #595959;' />
<rect x='99.80' y='109.08' width='37.61' height='14.25' style='stroke-width: 1.07; stroke: none; stroke-linecap: butt; stroke-linejoin: miter; fill: #595959;' />
<rect x='99.80' y='156.57' width='18.81' height='14.25' style='stroke-width: 1.07; stroke: none; stroke-linecap: butt; stroke-linejoin: miter; fill: #595959;' />
<rect x='99.80' y='14.11' width='94.03' height='14.25' style='stroke-width: 1.07; stroke: none; stroke-linecap: butt; stroke-linejoin: miter; fill: #595959;' />
</g>
<g clip-path='url(#cpMC4wMHwyMjYuNzd8MC4wMHwyMjYuNzc=)'>
<text x='90.16' y='182.67' text-anchor='end' style='font-size: 8.80px;fill: #4D4D4D; font-family: "Arial";' textLength='54.79px' lengthAdjust='spacingAndGlyphs'>SC_Date_abs</text>
<text x='90.16' y='166.85' text-anchor='end' style='font-size: 8.80px;fill: #4D4D4D; font-family: "Arial";' textLength='57.23px' lengthAdjust='spacingAndGlyphs'>SC_Refs_pres</text>
<text x='90.16' y='151.02' text-anchor='end' style='font-size: 8.80px;fill: #4D4D4D; font-family: "Arial";' textLength='68.82px' lengthAdjust='spacingAndGlyphs'>SC_AuthAffil_abs</text>
<text x='90.16' y='135.19' text-anchor='end' style='font-size: 8.80px;fill: #4D4D4D; font-family: "Arial";' textLength='62.14px' lengthAdjust='spacingAndGlyphs'>SC_Author_abs</text>
<text x='90.16' y='119.36' text-anchor='end' style='font-size: 8.80px;fill: #4D4D4D; font-family: "Arial";' textLength='54.78px' lengthAdjust='spacingAndGlyphs'>SC_DOI_pres</text>
<text x='90.16' y='103.53' text-anchor='end' style='font-size: 8.80px;fill: #4D4D4D; font-family: "Arial";' textLength='71.75px' lengthAdjust='spacingAndGlyphs'>SC_AuthAffil_pres</text>
<text x='90.16' y='87.70' text-anchor='end' style='font-size: 8.80px;fill: #4D4D4D; font-family: "Arial";' textLength='65.07px' lengthAdjust='spacingAndGlyphs'>SC_Author_pres</text>
<text x='90.16' y='71.87' text-anchor='end' style='font-size: 8.80px;fill: #4D4D4D; font-family: "Arial";' textLength='51.85px' lengthAdjust='spacingAndGlyphs'>SC_DOI_abs</text>
<text x='90.16' y='56.04' text-anchor='end' style='font-size: 8.80px;fill: #4D4D4D; font-family: "Arial";' textLength='51.36px' lengthAdjust='spacingAndGlyphs'>SC_Ads_abs</text>
<text x='90.16' y='40.21' text-anchor='end' style='font-size: 8.80px;fill: #4D4D4D; font-family: "Arial";' textLength='57.72px' lengthAdjust='spacingAndGlyphs'>SC_Date_pres</text>
<text x='90.16' y='24.38' text-anchor='end' style='font-size: 8.80px;fill: #4D4D4D; font-family: "Arial";' textLength='56.73px' lengthAdjust='spacingAndGlyphs'>SC_URL_pres</text>
<text x='203.46' y='182.67' style='font-size: 8.80px;fill: #4D4D4D; font-family: "Arial";' textLength='4.90px' lengthAdjust='spacingAndGlyphs'>1</text>
<text x='203.46' y='166.85' style='font-size: 8.80px;fill: #4D4D4D; font-family: "Arial";' textLength='4.90px' lengthAdjust='spacingAndGlyphs'>1</text>
<text x='203.46' y='151.02' style='font-size: 8.80px;fill: #4D4D4D; font-family: "Arial";' textLength='4.90px' lengthAdjust='spacingAndGlyphs'>2</text>
<text x='203.46' y='135.19' style='font-size: 8.80px;fill: #4D4D4D; font-family: "Arial";' textLength='4.90px' lengthAdjust='spacingAndGlyphs'>2</text>
<text x='203.46' y='119.36' style='font-size: 8.80px;fill: #4D4D4D; font-family: "Arial";' textLength='4.90px' lengthAdjust='spacingAndGlyphs'>2</text>
<text x='203.46' y='103.53' style='font-size: 8.80px;fill: #4D4D4D; font-family: "Arial";' textLength='4.90px' lengthAdjust='spacingAndGlyphs'>3</text>
<text x='203.46' y='87.70' style='font-size: 8.80px;fill: #4D4D4D; font-family: "Arial";' textLength='4.90px' lengthAdjust='spacingAndGlyphs'>3</text>
<text x='203.46' y='71.87' style='font-size: 8.80px;fill: #4D4D4D; font-family: "Arial";' textLength='4.90px' lengthAdjust='spacingAndGlyphs'>3</text>
<text x='203.46' y='56.04' style='font-size: 8.80px;fill: #4D4D4D; font-family: "Arial";' textLength='4.90px' lengthAdjust='spacingAndGlyphs'>5</text>
<text x='203.46' y='40.21' style='font-size: 8.80px;fill: #4D4D4D; font-family: "Arial";' textLength='4.90px' lengthAdjust='spacingAndGlyphs'>5</text>
<text x='203.46' y='24.38' style='font-size: 8.80px;fill: #4D4D4D; font-family: "Arial";' textLength='4.90px' lengthAdjust='spacingAndGlyphs'>5</text>
<text x='99.80' y='206.51' text-anchor='middle' style='font-size: 8.80px;fill: #4D4D4D; font-family: "Arial";' textLength='4.90px' lengthAdjust='spacingAndGlyphs'>0</text>
<text x='118.60' y='206.51' text-anchor='middle' style='font-size: 8.80px;fill: #4D4D4D; font-family: "Arial";' textLength='4.90px' lengthAdjust='spacingAndGlyphs'>1</text>
<text x='137.41' y='206.51' text-anchor='middle' style='font-size: 8.80px;fill: #4D4D4D; font-family: "Arial";' textLength='4.90px' lengthAdjust='spacingAndGlyphs'>2</text>
<text x='156.22' y='206.51' text-anchor='middle' style='font-size: 8.80px;fill: #4D4D4D; font-family: "Arial";' textLength='4.90px' lengthAdjust='spacingAndGlyphs'>3</text>
<text x='175.02' y='206.51' text-anchor='middle' style='font-size: 8.80px;fill: #4D4D4D; font-family: "Arial";' textLength='4.90px' lengthAdjust='spacingAndGlyphs'>4</text>
<text x='193.83' y='206.51' text-anchor='middle' style='font-size: 8.80px;fill: #4D4D4D; font-family: "Arial";' textLength='4.90px' lengthAdjust='spacingAndGlyphs'>5</text>
<text x='146.81' y='218.97' text-anchor='middle' style='font-size: 11.00px; font-family: "Arial";' textLength='51.98px' lengthAdjust='spacingAndGlyphs'>Frequency</text>
<text transform='translate(13.36,100.38) rotate(-90)' text-anchor='middle' style='font-size: 11.00px; font-family: "Arial";' textLength='26.30px' lengthAdjust='spacingAndGlyphs'>Code</text>
<text transform='translate(213.42,100.38) rotate(90)' text-anchor='middle' style='font-size: 11.00px; font-family: "Arial";' textLength='141.29px' lengthAdjust='spacingAndGlyphs'>Number of code occurrences</text>
</g>
</svg>
