<?xml version='1.0' encoding='UTF-8' ?>
<svg xmlns='http://www.w3.org/2000/svg' xmlns:xlink='http://www.w3.org/1999/xlink' class='svglite' width='226.77pt' height='226.77pt' viewBox='0 0 226.77 226.77'>
<defs>
  <style type='text/css'><![CDATA[
    .svglite line, .svglite polyline, .svglite polygon, .svglite path, .svglite rect, .svglite circle {
      fill: none;
      stroke: #000000;
      stroke-linecap: round;
      stroke-linejoin: round;
      stroke-miterlimit: 10.00;
    }
    .svglite text {
      white-space: pre;
    }
  ]]></style>
</defs>
<rect width='100%' height='100%' style='stroke: none; fill: none;'/>
<defs>
  <clipPath id='cpMC4wMHwyMjYuNzd8MC4wMHwyMjYuNzc='>
    <rect x='0.00' y='0.00' width='226.77' height='226.77' />
  </clipPath>
</defs>
<g clip-path='url(#cpMC4wMHwyMjYuNzd8MC4wMHwyMjYuNzc=)'>
</g>
<defs>
  <clipPath id='cpOTUuMDl8MTk4LjUzfDUuNDh8MTk1LjI4'>
    <rect x='95.09' y='5.48' width='103.44' height='189.80' />
  </clipPath>
</defs>
<g clip-path='url(#cpOTUuMDl8MTk4LjUzfDUuNDh8MTk1LjI4)'>
<polyline points='95.09,178.81 198.53,178.81 ' style='stroke-width: 0.21; stroke: #EEEEEE; stroke-linecap: butt;' />
<polyline points='95.09,161.38 198.53,161.38 ' style='stroke-width: 0.21; stroke: #EEEEEE; stroke-linecap: butt;' />
<polyline points='95.09,143.95 198.53,143.95 ' style='stroke-width: 0.21; stroke: #EEEEEE; stroke-linecap: butt;' />
<polyline points='95.09,126.52 198.53,126.52 ' style='stroke-width: 0.21; stroke: #EEEEEE; stroke-linecap: butt;' />
<polyline points='95.09,109.09 198.53,109.09 ' style='stroke-width: 0.21; stroke: #EEEEEE; stroke-linecap: butt;' />
<polyline points='95.09,91.66 198.53,91.66 ' style='stroke-width: 0.21; stroke: #EEEEEE; stroke-linecap: butt;' />
<polyline points='95.09,74.23 198.53,74.23 ' style='stroke-width: 0.21; stroke: #EEEEEE; stroke-linecap: butt;' />
<polyline points='95.09,56.81 198.53,56.81 ' style='stroke-width: 0.21; stroke: #EEEEEE; stroke-linecap: butt;' />
<polyline points='95.09,39.38 198.53,39.38 ' style='stroke-width: 0.21; stroke: #EEEEEE; stroke-linecap: butt;' />
<polyline points='95.09,21.95 198.53,21.95 ' style='stroke-width: 0.21; stroke: #EEEEEE; stroke-linecap: butt;' />
<rect x='99.80' y='118.68' width='47.02' height='15.69' style='stroke-width: 1.07; stroke: none; stroke-linecap: butt; stroke-linejoin: miter; fill: #595959;' />
<rect x='99.80' y='101.25' width='47.02' height='15.69' style='stroke-width: 1.07; stroke: none; stroke-linecap: butt; stroke-linejoin: miter; fill: #595959;' />
<rect x='99.80' y='83.82' width='70.52' height='15.69' style='stroke-width: 1.07; stroke: none; stroke-linecap: butt; stroke-linejoin: miter; fill: #595959;' />
<rect x='99.80' y='170.96' width='23.51' height='15.69' style='stroke-width: 1.07; stroke: none; stroke-linecap: butt; stroke-linejoin: miter; fill: #595959;' />
<rect x='99.80' y='153.53' width='23.51' height='15.69' style='stroke-width: 1.07; stroke: none; stroke-linecap: butt; stroke-linejoin: miter; fill: #595959;' />
<rect x='99.80' y='66.39' width='70.52' height='15.69' style='stroke-width: 1.07; stroke: none; stroke-linecap: butt; stroke-linejoin: miter; fill: #595959;' />
<rect x='99.80' y='31.53' width='94.03' height='15.69' style='stroke-width: 1.07; stroke: none; stroke-linecap: butt; stroke-linejoin: miter; fill: #595959;' />
<rect x='99.80' y='136.11' width='23.51' height='15.69' style='stroke-width: 1.07; stroke: none; stroke-linecap: butt; stroke-linejoin: miter; fill: #595959;' />
<rect x='99.80' y='48.96' width='70.52' height='15.69' style='stroke-width: 1.07; stroke: none; stroke-linecap: butt; stroke-linejoin: miter; fill: #595959;' />
<rect x='99.80' y='14.11' width='94.03' height='15.69' style='stroke-width: 1.07; stroke: none; stroke-linecap: butt; stroke-linejoin: miter; fill: #595959;' />
</g>
<g clip-path='url(#cpMC4wMHwyMjYuNzd8MC4wMHwyMjYuNzc=)'>
<text x='90.16' y='181.96' text-anchor='end' style='font-size: 8.80px;fill: #4D4D4D; font-family: "Arial";' textLength='71.75px' lengthAdjust='spacingAndGlyphs'>SC_AuthAffil_pres</text>
<text x='90.16' y='164.53' text-anchor='end' style='font-size: 8.80px;fill: #4D4D4D; font-family: "Arial";' textLength='62.14px' lengthAdjust='spacingAndGlyphs'>SC_Author_abs</text>
<text x='90.16' y='147.10' text-anchor='end' style='font-size: 8.80px;fill: #4D4D4D; font-family: "Arial";' textLength='54.30px' lengthAdjust='spacingAndGlyphs'>SC_Refs_abs</text>
<text x='90.16' y='129.67' text-anchor='end' style='font-size: 8.80px;fill: #4D4D4D; font-family: "Arial";' textLength='51.36px' lengthAdjust='spacingAndGlyphs'>SC_Ads_abs</text>
<text x='90.16' y='112.24' text-anchor='end' style='font-size: 8.80px;fill: #4D4D4D; font-family: "Arial";' textLength='54.30px' lengthAdjust='spacingAndGlyphs'>SC_Ads_pres</text>
<text x='90.16' y='94.81' text-anchor='end' style='font-size: 8.80px;fill: #4D4D4D; font-family: "Arial";' textLength='68.82px' lengthAdjust='spacingAndGlyphs'>SC_AuthAffil_abs</text>
<text x='90.16' y='77.38' text-anchor='end' style='font-size: 8.80px;fill: #4D4D4D; font-family: "Arial";' textLength='65.07px' lengthAdjust='spacingAndGlyphs'>SC_Author_pres</text>
<text x='90.16' y='59.96' text-anchor='end' style='font-size: 8.80px;fill: #4D4D4D; font-family: "Arial";' textLength='57.23px' lengthAdjust='spacingAndGlyphs'>SC_Refs_pres</text>
<text x='90.16' y='42.53' text-anchor='end' style='font-size: 8.80px;fill: #4D4D4D; font-family: "Arial";' textLength='57.72px' lengthAdjust='spacingAndGlyphs'>SC_Date_pres</text>
<text x='90.16' y='25.10' text-anchor='end' style='font-size: 8.80px;fill: #4D4D4D; font-family: "Arial";' textLength='56.73px' lengthAdjust='spacingAndGlyphs'>SC_URL_pres</text>
<text x='203.46' y='181.96' style='font-size: 8.80px;fill: #4D4D4D; font-family: "Arial";' textLength='4.90px' lengthAdjust='spacingAndGlyphs'>1</text>
<text x='203.46' y='164.53' style='font-size: 8.80px;fill: #4D4D4D; font-family: "Arial";' textLength='4.90px' lengthAdjust='spacingAndGlyphs'>1</text>
<text x='203.46' y='147.10' style='font-size: 8.80px;fill: #4D4D4D; font-family: "Arial";' textLength='4.90px' lengthAdjust='spacingAndGlyphs'>1</text>
<text x='203.46' y='129.67' style='font-size: 8.80px;fill: #4D4D4D; font-family: "Arial";' textLength='4.90px' lengthAdjust='spacingAndGlyphs'>2</text>
<text x='203.46' y='112.24' style='font-size: 8.80px;fill: #4D4D4D; font-family: "Arial";' textLength='4.90px' lengthAdjust='spacingAndGlyphs'>2</text>
<text x='203.46' y='94.81' style='font-size: 8.80px;fill: #4D4D4D; font-family: "Arial";' textLength='4.90px' lengthAdjust='spacingAndGlyphs'>3</text>
<text x='203.46' y='77.38' style='font-size: 8.80px;fill: #4D4D4D; font-family: "Arial";' textLength='4.90px' lengthAdjust='spacingAndGlyphs'>3</text>
<text x='203.46' y='59.96' style='font-size: 8.80px;fill: #4D4D4D; font-family: "Arial";' textLength='4.90px' lengthAdjust='spacingAndGlyphs'>3</text>
<text x='203.46' y='42.53' style='font-size: 8.80px;fill: #4D4D4D; font-family: "Arial";' textLength='4.90px' lengthAdjust='spacingAndGlyphs'>4</text>
<text x='203.46' y='25.10' style='font-size: 8.80px;fill: #4D4D4D; font-family: "Arial";' textLength='4.90px' lengthAdjust='spacingAndGlyphs'>4</text>
<text x='99.80' y='206.51' text-anchor='middle' style='font-size: 8.80px;fill: #4D4D4D; font-family: "Arial";' textLength='4.90px' lengthAdjust='spacingAndGlyphs'>0</text>
<text x='123.30' y='206.51' text-anchor='middle' style='font-size: 8.80px;fill: #4D4D4D; font-family: "Arial";' textLength='4.90px' lengthAdjust='spacingAndGlyphs'>1</text>
<text x='146.81' y='206.51' text-anchor='middle' style='font-size: 8.80px;fill: #4D4D4D; font-family: "Arial";' textLength='4.90px' lengthAdjust='spacingAndGlyphs'>2</text>
<text x='170.32' y='206.51' text-anchor='middle' style='font-size: 8.80px;fill: #4D4D4D; font-family: "Arial";' textLength='4.90px' lengthAdjust='spacingAndGlyphs'>3</text>
<text x='193.83' y='206.51' text-anchor='middle' style='font-size: 8.80px;fill: #4D4D4D; font-family: "Arial";' textLength='4.90px' lengthAdjust='spacingAndGlyphs'>4</text>
<text x='146.81' y='218.97' text-anchor='middle' style='font-size: 11.00px; font-family: "Arial";' textLength='51.98px' lengthAdjust='spacingAndGlyphs'>Frequency</text>
<text transform='translate(13.36,100.38) rotate(-90)' text-anchor='middle' style='font-size: 11.00px; font-family: "Arial";' textLength='26.30px' lengthAdjust='spacingAndGlyphs'>Code</text>
<text transform='translate(213.42,100.38) rotate(90)' text-anchor='middle' style='font-size: 11.00px; font-family: "Arial";' textLength='141.29px' lengthAdjust='spacingAndGlyphs'>Number of code occurrences</text>
</g>
</svg>
