<?xml version='1.0' encoding='UTF-8' ?>
<svg xmlns='http://www.w3.org/2000/svg' xmlns:xlink='http://www.w3.org/1999/xlink' class='svglite' width='226.77pt' height='226.77pt' viewBox='0 0 226.77 226.77'>
<defs>
  <style type='text/css'><![CDATA[
    .svglite line, .svglite polyline, .svglite polygon, .svglite path, .svglite rect, .svglite circle {
      fill: none;
      stroke: #000000;
      stroke-linecap: round;
      stroke-linejoin: round;
      stroke-miterlimit: 10.00;
    }
    .svglite text {
      white-space: pre;
    }
  ]]></style>
</defs>
<rect width='100%' height='100%' style='stroke: none; fill: none;'/>
<defs>
  <clipPath id='cpMC4wMHwyMjYuNzd8MC4wMHwyMjYuNzc='>
    <rect x='0.00' y='0.00' width='226.77' height='226.77' />
  </clipPath>
</defs>
<g clip-path='url(#cpMC4wMHwyMjYuNzd8MC4wMHwyMjYuNzc=)'>
</g>
<defs>
  <clipPath id='cpOTUuMDl8MTk4LjUzfDUuNDh8MTk1LjI4'>
    <rect x='95.09' y='5.48' width='103.44' height='189.80' />
  </clipPath>
</defs>
<g clip-path='url(#cpOTUuMDl8MTk4LjUzfDUuNDh8MTk1LjI4)'>
<polyline points='95.09,181.06 198.53,181.06 ' style='stroke-width: 0.21; stroke: #EEEEEE; stroke-linecap: butt;' />
<polyline points='95.09,168.65 198.53,168.65 ' style='stroke-width: 0.21; stroke: #EEEEEE; stroke-linecap: butt;' />
<polyline points='95.09,156.24 198.53,156.24 ' style='stroke-width: 0.21; stroke: #EEEEEE; stroke-linecap: butt;' />
<polyline points='95.09,143.82 198.53,143.82 ' style='stroke-width: 0.21; stroke: #EEEEEE; stroke-linecap: butt;' />
<polyline points='95.09,131.41 198.53,131.41 ' style='stroke-width: 0.21; stroke: #EEEEEE; stroke-linecap: butt;' />
<polyline points='95.09,119.00 198.53,119.00 ' style='stroke-width: 0.21; stroke: #EEEEEE; stroke-linecap: butt;' />
<polyline points='95.09,106.58 198.53,106.58 ' style='stroke-width: 0.21; stroke: #EEEEEE; stroke-linecap: butt;' />
<polyline points='95.09,94.17 198.53,94.17 ' style='stroke-width: 0.21; stroke: #EEEEEE; stroke-linecap: butt;' />
<polyline points='95.09,81.76 198.53,81.76 ' style='stroke-width: 0.21; stroke: #EEEEEE; stroke-linecap: butt;' />
<polyline points='95.09,69.34 198.53,69.34 ' style='stroke-width: 0.21; stroke: #EEEEEE; stroke-linecap: butt;' />
<polyline points='95.09,56.93 198.53,56.93 ' style='stroke-width: 0.21; stroke: #EEEEEE; stroke-linecap: butt;' />
<polyline points='95.09,44.52 198.53,44.52 ' style='stroke-width: 0.21; stroke: #EEEEEE; stroke-linecap: butt;' />
<polyline points='95.09,32.11 198.53,32.11 ' style='stroke-width: 0.21; stroke: #EEEEEE; stroke-linecap: butt;' />
<polyline points='95.09,19.69 198.53,19.69 ' style='stroke-width: 0.21; stroke: #EEEEEE; stroke-linecap: butt;' />
<rect x='99.80' y='76.17' width='73.14' height='11.17' style='stroke-width: 1.07; stroke: none; stroke-linecap: butt; stroke-linejoin: miter; fill: #595959;' />
<rect x='99.80' y='101.00' width='20.90' height='11.17' style='stroke-width: 1.07; stroke: none; stroke-linecap: butt; stroke-linejoin: miter; fill: #595959;' />
<rect x='99.80' y='51.35' width='83.58' height='11.17' style='stroke-width: 1.07; stroke: none; stroke-linecap: butt; stroke-linejoin: miter; fill: #595959;' />
<rect x='99.80' y='175.48' width='10.45' height='11.17' style='stroke-width: 1.07; stroke: none; stroke-linecap: butt; stroke-linejoin: miter; fill: #595959;' />
<rect x='99.80' y='38.93' width='83.58' height='11.17' style='stroke-width: 1.07; stroke: none; stroke-linecap: butt; stroke-linejoin: miter; fill: #595959;' />
<rect x='99.80' y='163.06' width='10.45' height='11.17' style='stroke-width: 1.07; stroke: none; stroke-linecap: butt; stroke-linejoin: miter; fill: #595959;' />
<rect x='99.80' y='63.76' width='73.14' height='11.17' style='stroke-width: 1.07; stroke: none; stroke-linecap: butt; stroke-linejoin: miter; fill: #595959;' />
<rect x='99.80' y='88.58' width='20.90' height='11.17' style='stroke-width: 1.07; stroke: none; stroke-linecap: butt; stroke-linejoin: miter; fill: #595959;' />
<rect x='99.80' y='150.65' width='10.45' height='11.17' style='stroke-width: 1.07; stroke: none; stroke-linecap: butt; stroke-linejoin: miter; fill: #595959;' />
<rect x='99.80' y='138.24' width='10.45' height='11.17' style='stroke-width: 1.07; stroke: none; stroke-linecap: butt; stroke-linejoin: miter; fill: #595959;' />
<rect x='99.80' y='26.52' width='83.58' height='11.17' style='stroke-width: 1.07; stroke: none; stroke-linecap: butt; stroke-linejoin: miter; fill: #595959;' />
<rect x='99.80' y='125.82' width='10.45' height='11.17' style='stroke-width: 1.07; stroke: none; stroke-linecap: butt; stroke-linejoin: miter; fill: #595959;' />
<rect x='99.80' y='113.41' width='10.45' height='11.17' style='stroke-width: 1.07; stroke: none; stroke-linecap: butt; stroke-linejoin: miter; fill: #595959;' />
<rect x='99.80' y='14.11' width='94.03' height='11.17' style='stroke-width: 1.07; stroke: none; stroke-linecap: butt; stroke-linejoin: miter; fill: #595959;' />
</g>
<g clip-path='url(#cpMC4wMHwyMjYuNzd8MC4wMHwyMjYuNzc=)'>
<text x='90.16' y='184.21' text-anchor='end' style='font-size: 8.80px;fill: #4D4D4D; font-family: "Arial";' textLength='71.75px' lengthAdjust='spacingAndGlyphs'>SC_AuthAffil_pres</text>
<text x='90.16' y='171.80' text-anchor='end' style='font-size: 8.80px;fill: #4D4D4D; font-family: "Arial";' textLength='65.07px' lengthAdjust='spacingAndGlyphs'>SC_Author_pres</text>
<text x='90.16' y='159.39' text-anchor='end' style='font-size: 8.80px;fill: #4D4D4D; font-family: "Arial";' textLength='54.78px' lengthAdjust='spacingAndGlyphs'>SC_DOI_pres</text>
<text x='90.16' y='146.97' text-anchor='end' style='font-size: 8.80px;fill: #4D4D4D; font-family: "Arial";' textLength='54.30px' lengthAdjust='spacingAndGlyphs'>SC_Refs_abs</text>
<text x='90.16' y='134.56' text-anchor='end' style='font-size: 8.80px;fill: #4D4D4D; font-family: "Arial";' textLength='66.02px' lengthAdjust='spacingAndGlyphs'>SC_SciMet_pres</text>
<text x='90.16' y='122.15' text-anchor='end' style='font-size: 8.80px;fill: #4D4D4D; font-family: "Arial";' textLength='53.80px' lengthAdjust='spacingAndGlyphs'>SC_URL_abs</text>
<text x='90.16' y='109.73' text-anchor='end' style='font-size: 8.80px;fill: #4D4D4D; font-family: "Arial";' textLength='54.30px' lengthAdjust='spacingAndGlyphs'>SC_Ads_pres</text>
<text x='90.16' y='97.32' text-anchor='end' style='font-size: 8.80px;fill: #4D4D4D; font-family: "Arial";' textLength='57.72px' lengthAdjust='spacingAndGlyphs'>SC_Date_pres</text>
<text x='90.16' y='84.91' text-anchor='end' style='font-size: 8.80px;fill: #4D4D4D; font-family: "Arial";' textLength='51.36px' lengthAdjust='spacingAndGlyphs'>SC_Ads_abs</text>
<text x='90.16' y='72.49' text-anchor='end' style='font-size: 8.80px;fill: #4D4D4D; font-family: "Arial";' textLength='54.79px' lengthAdjust='spacingAndGlyphs'>SC_Date_abs</text>
<text x='90.16' y='60.08' text-anchor='end' style='font-size: 8.80px;fill: #4D4D4D; font-family: "Arial";' textLength='68.82px' lengthAdjust='spacingAndGlyphs'>SC_AuthAffil_abs</text>
<text x='90.16' y='47.67' text-anchor='end' style='font-size: 8.80px;fill: #4D4D4D; font-family: "Arial";' textLength='62.14px' lengthAdjust='spacingAndGlyphs'>SC_Author_abs</text>
<text x='90.16' y='35.26' text-anchor='end' style='font-size: 8.80px;fill: #4D4D4D; font-family: "Arial";' textLength='57.23px' lengthAdjust='spacingAndGlyphs'>SC_Refs_pres</text>
<text x='90.16' y='22.84' text-anchor='end' style='font-size: 8.80px;fill: #4D4D4D; font-family: "Arial";' textLength='56.73px' lengthAdjust='spacingAndGlyphs'>SC_URL_pres</text>
<text x='203.46' y='184.21' style='font-size: 8.80px;fill: #4D4D4D; font-family: "Arial";' textLength='4.90px' lengthAdjust='spacingAndGlyphs'>1</text>
<text x='203.46' y='171.80' style='font-size: 8.80px;fill: #4D4D4D; font-family: "Arial";' textLength='4.90px' lengthAdjust='spacingAndGlyphs'>1</text>
<text x='203.46' y='159.39' style='font-size: 8.80px;fill: #4D4D4D; font-family: "Arial";' textLength='4.90px' lengthAdjust='spacingAndGlyphs'>1</text>
<text x='203.46' y='146.97' style='font-size: 8.80px;fill: #4D4D4D; font-family: "Arial";' textLength='4.90px' lengthAdjust='spacingAndGlyphs'>1</text>
<text x='203.46' y='134.56' style='font-size: 8.80px;fill: #4D4D4D; font-family: "Arial";' textLength='4.90px' lengthAdjust='spacingAndGlyphs'>1</text>
<text x='203.46' y='122.15' style='font-size: 8.80px;fill: #4D4D4D; font-family: "Arial";' textLength='4.90px' lengthAdjust='spacingAndGlyphs'>1</text>
<text x='203.46' y='109.73' style='font-size: 8.80px;fill: #4D4D4D; font-family: "Arial";' textLength='4.90px' lengthAdjust='spacingAndGlyphs'>2</text>
<text x='203.46' y='97.32' style='font-size: 8.80px;fill: #4D4D4D; font-family: "Arial";' textLength='4.90px' lengthAdjust='spacingAndGlyphs'>2</text>
<text x='203.46' y='84.91' style='font-size: 8.80px;fill: #4D4D4D; font-family: "Arial";' textLength='4.90px' lengthAdjust='spacingAndGlyphs'>7</text>
<text x='203.46' y='72.49' style='font-size: 8.80px;fill: #4D4D4D; font-family: "Arial";' textLength='4.90px' lengthAdjust='spacingAndGlyphs'>7</text>
<text x='203.46' y='60.08' style='font-size: 8.80px;fill: #4D4D4D; font-family: "Arial";' textLength='4.90px' lengthAdjust='spacingAndGlyphs'>8</text>
<text x='203.46' y='47.67' style='font-size: 8.80px;fill: #4D4D4D; font-family: "Arial";' textLength='4.90px' lengthAdjust='spacingAndGlyphs'>8</text>
<text x='203.46' y='35.26' style='font-size: 8.80px;fill: #4D4D4D; font-family: "Arial";' textLength='4.90px' lengthAdjust='spacingAndGlyphs'>8</text>
<text x='203.46' y='22.84' style='font-size: 8.80px;fill: #4D4D4D; font-family: "Arial";' textLength='4.90px' lengthAdjust='spacingAndGlyphs'>9</text>
<text x='99.80' y='206.51' text-anchor='middle' style='font-size: 8.80px;fill: #4D4D4D; font-family: "Arial";' textLength='12.24px' lengthAdjust='spacingAndGlyphs'>0.0</text>
<text x='125.92' y='206.51' text-anchor='middle' style='font-size: 8.80px;fill: #4D4D4D; font-family: "Arial";' textLength='12.24px' lengthAdjust='spacingAndGlyphs'>2.5</text>
<text x='152.04' y='206.51' text-anchor='middle' style='font-size: 8.80px;fill: #4D4D4D; font-family: "Arial";' textLength='12.24px' lengthAdjust='spacingAndGlyphs'>5.0</text>
<text x='178.16' y='206.51' text-anchor='middle' style='font-size: 8.80px;fill: #4D4D4D; font-family: "Arial";' textLength='12.24px' lengthAdjust='spacingAndGlyphs'>7.5</text>
<text x='146.81' y='218.97' text-anchor='middle' style='font-size: 11.00px; font-family: "Arial";' textLength='51.98px' lengthAdjust='spacingAndGlyphs'>Frequency</text>
<text transform='translate(13.36,100.38) rotate(-90)' text-anchor='middle' style='font-size: 11.00px; font-family: "Arial";' textLength='26.30px' lengthAdjust='spacingAndGlyphs'>Code</text>
<text transform='translate(213.42,100.38) rotate(90)' text-anchor='middle' style='font-size: 11.00px; font-family: "Arial";' textLength='141.29px' lengthAdjust='spacingAndGlyphs'>Number of code occurrences</text>
</g>
</svg>
