<?xml version='1.0' encoding='UTF-8' ?>
<svg xmlns='http://www.w3.org/2000/svg' xmlns:xlink='http://www.w3.org/1999/xlink' class='svglite' width='226.77pt' height='226.77pt' viewBox='0 0 226.77 226.77'>
<defs>
  <style type='text/css'><![CDATA[
    .svglite line, .svglite polyline, .svglite polygon, .svglite path, .svglite rect, .svglite circle {
      fill: none;
      stroke: #000000;
      stroke-linecap: round;
      stroke-linejoin: round;
      stroke-miterlimit: 10.00;
    }
    .svglite text {
      white-space: pre;
    }
  ]]></style>
</defs>
<rect width='100%' height='100%' style='stroke: none; fill: none;'/>
<defs>
  <clipPath id='cpMC4wMHwyMjYuNzd8MC4wMHwyMjYuNzc='>
    <rect x='0.00' y='0.00' width='226.77' height='226.77' />
  </clipPath>
</defs>
<g clip-path='url(#cpMC4wMHwyMjYuNzd8MC4wMHwyMjYuNzc=)'>
</g>
<defs>
  <clipPath id='cpOTUuMDl8MTkzLjYzfDUuNDh8MTk1LjI4'>
    <rect x='95.09' y='5.48' width='98.54' height='189.80' />
  </clipPath>
</defs>
<g clip-path='url(#cpOTUuMDl8MTkzLjYzfDUuNDh8MTk1LjI4)'>
<polyline points='95.09,178.81 193.63,178.81 ' style='stroke-width: 0.21; stroke: #EEEEEE; stroke-linecap: butt;' />
<polyline points='95.09,161.38 193.63,161.38 ' style='stroke-width: 0.21; stroke: #EEEEEE; stroke-linecap: butt;' />
<polyline points='95.09,143.95 193.63,143.95 ' style='stroke-width: 0.21; stroke: #EEEEEE; stroke-linecap: butt;' />
<polyline points='95.09,126.52 193.63,126.52 ' style='stroke-width: 0.21; stroke: #EEEEEE; stroke-linecap: butt;' />
<polyline points='95.09,109.09 193.63,109.09 ' style='stroke-width: 0.21; stroke: #EEEEEE; stroke-linecap: butt;' />
<polyline points='95.09,91.66 193.63,91.66 ' style='stroke-width: 0.21; stroke: #EEEEEE; stroke-linecap: butt;' />
<polyline points='95.09,74.23 193.63,74.23 ' style='stroke-width: 0.21; stroke: #EEEEEE; stroke-linecap: butt;' />
<polyline points='95.09,56.81 193.63,56.81 ' style='stroke-width: 0.21; stroke: #EEEEEE; stroke-linecap: butt;' />
<polyline points='95.09,39.38 193.63,39.38 ' style='stroke-width: 0.21; stroke: #EEEEEE; stroke-linecap: butt;' />
<polyline points='95.09,21.95 193.63,21.95 ' style='stroke-width: 0.21; stroke: #EEEEEE; stroke-linecap: butt;' />
<rect x='99.57' y='48.96' width='82.12' height='15.69' style='stroke-width: 1.07; stroke: none; stroke-linecap: butt; stroke-linejoin: miter; fill: #595959;' />
<rect x='99.57' y='83.82' width='67.19' height='15.69' style='stroke-width: 1.07; stroke: none; stroke-linecap: butt; stroke-linejoin: miter; fill: #595959;' />
<rect x='99.57' y='153.53' width='22.40' height='15.69' style='stroke-width: 1.07; stroke: none; stroke-linecap: butt; stroke-linejoin: miter; fill: #595959;' />
<rect x='99.57' y='66.39' width='67.19' height='15.69' style='stroke-width: 1.07; stroke: none; stroke-linecap: butt; stroke-linejoin: miter; fill: #595959;' />
<rect x='99.57' y='136.11' width='22.40' height='15.69' style='stroke-width: 1.07; stroke: none; stroke-linecap: butt; stroke-linejoin: miter; fill: #595959;' />
<rect x='99.57' y='101.25' width='59.72' height='15.69' style='stroke-width: 1.07; stroke: none; stroke-linecap: butt; stroke-linejoin: miter; fill: #595959;' />
<rect x='99.57' y='118.68' width='29.86' height='15.69' style='stroke-width: 1.07; stroke: none; stroke-linecap: butt; stroke-linejoin: miter; fill: #595959;' />
<rect x='99.57' y='170.96' width='14.93' height='15.69' style='stroke-width: 1.07; stroke: none; stroke-linecap: butt; stroke-linejoin: miter; fill: #595959;' />
<rect x='99.57' y='31.53' width='89.58' height='15.69' style='stroke-width: 1.07; stroke: none; stroke-linecap: butt; stroke-linejoin: miter; fill: #595959;' />
<rect x='99.57' y='14.11' width='89.58' height='15.69' style='stroke-width: 1.07; stroke: none; stroke-linecap: butt; stroke-linejoin: miter; fill: #595959;' />
</g>
<g clip-path='url(#cpMC4wMHwyMjYuNzd8MC4wMHwyMjYuNzc=)'>
<text x='90.16' y='181.96' text-anchor='end' style='font-size: 8.80px;fill: #4D4D4D; font-family: "Arial";' textLength='54.78px' lengthAdjust='spacingAndGlyphs'>SC_DOI_pres</text>
<text x='90.16' y='164.53' text-anchor='end' style='font-size: 8.80px;fill: #4D4D4D; font-family: "Arial";' textLength='71.75px' lengthAdjust='spacingAndGlyphs'>SC_AuthAffil_pres</text>
<text x='90.16' y='147.10' text-anchor='end' style='font-size: 8.80px;fill: #4D4D4D; font-family: "Arial";' textLength='65.07px' lengthAdjust='spacingAndGlyphs'>SC_Author_pres</text>
<text x='90.16' y='129.67' text-anchor='end' style='font-size: 8.80px;fill: #4D4D4D; font-family: "Arial";' textLength='57.72px' lengthAdjust='spacingAndGlyphs'>SC_Date_pres</text>
<text x='90.16' y='112.24' text-anchor='end' style='font-size: 8.80px;fill: #4D4D4D; font-family: "Arial";' textLength='54.79px' lengthAdjust='spacingAndGlyphs'>SC_Date_abs</text>
<text x='90.16' y='94.81' text-anchor='end' style='font-size: 8.80px;fill: #4D4D4D; font-family: "Arial";' textLength='68.82px' lengthAdjust='spacingAndGlyphs'>SC_AuthAffil_abs</text>
<text x='90.16' y='77.38' text-anchor='end' style='font-size: 8.80px;fill: #4D4D4D; font-family: "Arial";' textLength='62.14px' lengthAdjust='spacingAndGlyphs'>SC_Author_abs</text>
<text x='90.16' y='59.96' text-anchor='end' style='font-size: 8.80px;fill: #4D4D4D; font-family: "Arial";' textLength='51.36px' lengthAdjust='spacingAndGlyphs'>SC_Ads_abs</text>
<text x='90.16' y='42.53' text-anchor='end' style='font-size: 8.80px;fill: #4D4D4D; font-family: "Arial";' textLength='57.23px' lengthAdjust='spacingAndGlyphs'>SC_Refs_pres</text>
<text x='90.16' y='25.10' text-anchor='end' style='font-size: 8.80px;fill: #4D4D4D; font-family: "Arial";' textLength='56.73px' lengthAdjust='spacingAndGlyphs'>SC_URL_pres</text>
<text x='198.57' y='181.96' style='font-size: 8.80px;fill: #4D4D4D; font-family: "Arial";' textLength='4.90px' lengthAdjust='spacingAndGlyphs'>2</text>
<text x='198.57' y='164.53' style='font-size: 8.80px;fill: #4D4D4D; font-family: "Arial";' textLength='4.90px' lengthAdjust='spacingAndGlyphs'>3</text>
<text x='198.57' y='147.10' style='font-size: 8.80px;fill: #4D4D4D; font-family: "Arial";' textLength='4.90px' lengthAdjust='spacingAndGlyphs'>3</text>
<text x='198.57' y='129.67' style='font-size: 8.80px;fill: #4D4D4D; font-family: "Arial";' textLength='4.90px' lengthAdjust='spacingAndGlyphs'>4</text>
<text x='198.57' y='112.24' style='font-size: 8.80px;fill: #4D4D4D; font-family: "Arial";' textLength='4.90px' lengthAdjust='spacingAndGlyphs'>8</text>
<text x='198.57' y='94.81' style='font-size: 8.80px;fill: #4D4D4D; font-family: "Arial";' textLength='4.90px' lengthAdjust='spacingAndGlyphs'>9</text>
<text x='198.57' y='77.38' style='font-size: 8.80px;fill: #4D4D4D; font-family: "Arial";' textLength='4.90px' lengthAdjust='spacingAndGlyphs'>9</text>
<text x='198.57' y='59.96' style='font-size: 8.80px;fill: #4D4D4D; font-family: "Arial";' textLength='9.14px' lengthAdjust='spacingAndGlyphs'>11</text>
<text x='198.57' y='42.53' style='font-size: 8.80px;fill: #4D4D4D; font-family: "Arial";' textLength='9.79px' lengthAdjust='spacingAndGlyphs'>12</text>
<text x='198.57' y='25.10' style='font-size: 8.80px;fill: #4D4D4D; font-family: "Arial";' textLength='9.79px' lengthAdjust='spacingAndGlyphs'>12</text>
<text x='99.57' y='206.51' text-anchor='middle' style='font-size: 8.80px;fill: #4D4D4D; font-family: "Arial";' textLength='12.24px' lengthAdjust='spacingAndGlyphs'>0.0</text>
<text x='118.24' y='206.51' text-anchor='middle' style='font-size: 8.80px;fill: #4D4D4D; font-family: "Arial";' textLength='12.24px' lengthAdjust='spacingAndGlyphs'>2.5</text>
<text x='136.90' y='206.51' text-anchor='middle' style='font-size: 8.80px;fill: #4D4D4D; font-family: "Arial";' textLength='12.24px' lengthAdjust='spacingAndGlyphs'>5.0</text>
<text x='155.56' y='206.51' text-anchor='middle' style='font-size: 8.80px;fill: #4D4D4D; font-family: "Arial";' textLength='12.24px' lengthAdjust='spacingAndGlyphs'>7.5</text>
<text x='174.22' y='206.51' text-anchor='middle' style='font-size: 8.80px;fill: #4D4D4D; font-family: "Arial";' textLength='17.14px' lengthAdjust='spacingAndGlyphs'>10.0</text>
<text x='192.89' y='206.51' text-anchor='middle' style='font-size: 8.80px;fill: #4D4D4D; font-family: "Arial";' textLength='17.14px' lengthAdjust='spacingAndGlyphs'>12.5</text>
<text x='144.36' y='218.97' text-anchor='middle' style='font-size: 11.00px; font-family: "Arial";' textLength='51.98px' lengthAdjust='spacingAndGlyphs'>Frequency</text>
<text transform='translate(13.36,100.38) rotate(-90)' text-anchor='middle' style='font-size: 11.00px; font-family: "Arial";' textLength='26.30px' lengthAdjust='spacingAndGlyphs'>Code</text>
<text transform='translate(213.42,100.38) rotate(90)' text-anchor='middle' style='font-size: 11.00px; font-family: "Arial";' textLength='141.29px' lengthAdjust='spacingAndGlyphs'>Number of code occurrences</text>
</g>
</svg>
