digraph {
  node[fontname=Arial]

  edge[fontname=Arial]

  academia -> academia [label='  0.83    ', penwidth=2.49999999];
  academia -> government [label='  0.17    ', penwidth=0.50000001];
  engine_SERP -> engine_SERP [label='  0.87    ', penwidth=2.60526315];
  engine_SERP -> government [label='  0.08    ', penwidth=0.23684211];
  engine_SERP -> scicomm [label='  0.05    ', penwidth=0.15789474];
  government -> engine_SERP [label='  0.06    ', penwidth=0.19148937];
  government -> government [label='  0.91    ', penwidth=2.74468086];
  government -> news [label='  0.02    ', penwidth=0.0638298];
  news -> engine_SERP [label='  0.14    ', penwidth=0.42857142];
  news -> news [label='  0.86    ', penwidth=2.57142858];
  scicomm -> academia [label='  0.06    ', penwidth=0.16666668];
  scicomm -> scicomm [label='  0.94    ', penwidth=2.83333332];
}

