digraph {
  node[fontname=Arial]

  edge[fontname=Arial]

  academia -> academia [label='  0.91    ', penwidth=2.72727273];
  academia -> engine_SERP [label='  0.09    ', penwidth=0.27272727];
  engine_SERP -> academia [label='  0.13    ', penwidth=0.39473685];
  engine_SERP -> engine_SERP [label='  0.87    ', penwidth=2.60526315];
}

