digraph {
  node[fontname=Arial]

  edge[fontname=Arial]

  academia -> academia [label='  0.96    ', penwidth=2.87755101];
  academia -> engine_SERP [label='  0.04    ', penwidth=0.12244899];
  engine_SERP -> academia [label='  0.07    ', penwidth=0.20689656];
  engine_SERP -> engine_SERP [label='  0.90    ', penwidth=2.68965516];
  engine_SERP -> scicomm [label='  0.03    ', penwidth=0.10344828];
  scicomm -> academia [label='  0.05    ', penwidth=0.15];
  scicomm -> scicomm [label='  0.95    ', penwidth=2.85];
}

