digraph {
  node[fontname=Arial]

  edge[fontname=Arial]

  academia -> academia [label='  0.92    ', penwidth=2.75000001];
  academia -> engine_SERP [label='  0.04    ', penwidth=0.12500001];
  academia -> government [label='  0.04    ', penwidth=0.12500001];
  engine_SERP -> engine_SERP [label='  0.86    ', penwidth=2.57142858];
  engine_SERP -> government [label='  0.07    ', penwidth=0.21428571];
  engine_SERP -> news [label='  0.04    ', penwidth=0.10714287];
  engine_SERP -> scicomm [label='  0.04    ', penwidth=0.10714287];
  government -> engine_SERP [label='  0.04    ', penwidth=0.11764707];
  government -> government [label='  0.94    ', penwidth=2.82352941];
  government -> news [label='  0.02    ', penwidth=0.05882352];
  news -> academia [label='  0.12    ', penwidth=0.375];
  news -> news [label='  0.88    ', penwidth=2.625];
  scicomm -> scicomm [label='  1.00    ', penwidth=3];
}

