digraph {
  node[fontname=Arial]

  edge[fontname=Arial]

  engine_SERP -> engine_SERP [label='  0.84    ', penwidth=2.52631578];
  engine_SERP -> government [label='  0.11    ', penwidth=0.31578948];
  engine_SERP -> scicomm [label='  0.05    ', penwidth=0.15789474];
  government -> engine_SERP [label='  0.04    ', penwidth=0.12500001];
  government -> government [label='  0.96    ', penwidth=2.87499999];
  scicomm -> government [label='  0.06    ', penwidth=0.16666668];
  scicomm -> scicomm [label='  0.94    ', penwidth=2.83333332];
}

