digraph {
  node[fontname=Arial]

  edge[fontname=Arial]

  academia -> academia [label='  0.86    ', penwidth=2.578947369];
  academia -> engine_SERP [label='  0.09    ', penwidth=0.263157894];
  academia -> news [label='  0.02    ', penwidth=0.05263158];
  academia -> scicomm [label='  0.04    ', penwidth=0.105263157];
  engine_SERP -> academia [label='  0.06    ', penwidth=0.194444445];
  engine_SERP -> engine_SERP [label='  0.93    ', penwidth=2.777777778];
  engine_SERP -> news [label='  0.01    ', penwidth=0.027777777];
  news -> engine_SERP [label='  0.13    ', penwidth=0.399999999];
  news -> news [label='  0.87    ', penwidth=2.600000001];
  scicomm -> academia [label='  0.04    ', penwidth=0.130434783];
  scicomm -> engine_SERP [label='  0.04    ', penwidth=0.130434783];
  scicomm -> scicomm [label='  0.91    ', penwidth=2.739130434];
}

