patchTag: "Google All"
domain: "google.com"
pid: "patch_016_1"
patchType: "engine"
start: "00:00"
end: "00:13"
HCI1: "type | google | search bar"
HCI2: "type | enter | search bar"

patchTag: "Google All"
domain: "google.com"
pid: "patch_016_2"
patchType: "SERP"
start: "00:14"
end: "00:28"
HCI1: "type | origin of covid-19 virus | search bar"
HCI2: "type | enter | search bar"

patchTag: "Google All"
domain: "google.com"
pid: "patch_016_3"
patchType: "SERP"
start: "00:29"
end: "00:41"
HCI1: "scroll | down | page"
HCI2: "scroll | up | page"
HCI3: "type | origin of covid-19 virus bbc | search bar"
HCI4: "type | enter | search bar"

patchTag: "Google All"
domain: "google.com"
pid: "patch_016_4"
patchType: "SERP"
start: "00:42"
end: "00:46"
HCI1: "click | Covid origin studies say evidence points to Wuhan market - BBC | result 1 title"

patchTag: "BBC"
domain: "bbc.com"
pid: "patch_016_5"
patchType: "page"
start: "00:47"
end: "00:54"
HCI1: "scroll | down | page"

patchTag: "Google All"
domain: "google.com"
pid: "patch_016_4"
patchType: "SERP"
start: "00:55"
end: "01:03"
HCI1: "click | Covid origin studies say evidence points to Wuhan market - BBC | result 1 title"

patchTag: "BBC"
domain: "bbc.com"
pid: "patch_016_5"
patchType: "page"
start: "01:04"
end: "01:14"
HCI1: "scroll | down | page"
HCI2: "click | were clustered around that market | hyperlink"

patchTag: "Science"
domain: "science.org"
pid: "patch_016_6"
patchType: "page"
start: "01:15"
end: "02:01"
HCI1: "scroll | down | page"

patchTag: "BBC"
domain: "bbc.com"
pid: "patch_016_5"
patchType: "page"
start: "02:02"
end: "03:56"
HCI1: "scroll | down | page"
HCI2: "scroll | up | page"
HCI3: "scroll | down | page"
HCI4: "click | Scientists weight up evidence over COVID's origins | hyperlink"

patchTag: "BBC"
domain: "bbc.com"
pid: "patch_016_7"
patchType: "page"
start: "03:57"
end: "04:28"
HCI1: "scroll | down | page"

patchTag: "Google All"
domain: "google.com"
pid: "patch_016_4"
patchType: "SERP"
start: "04:29"
end: "04:58"
HCI1: "scroll | down | page"
HCI2: "click | What is the origin of COVID-19? | Common questions"
HCI3: "scroll | down | page"
HCI4: "scroll | up | page"
HCI5: "type | origin of covid-19 virus guardian | search bar"
HCI6: "type | enter | search bar"

patchTag: "Google All"
domain: "google.com"
pid: "patch_016_8"
patchType: "SERP"
start: "04:59"
end: "05:06"
HCI1: "scroll | down | page"
HCI2: "click | Angela Rasmussen on Covid-19: This origins discussion is... | result 1 subtitle"

patchTag: "The Guardian"
domain: "theguardian.com"
pid: "patch_016_9"
patchType: "page"
start: "05:07"
end: "06:42"
HCI1: "click | close | pop-up"
HCI2: "scroll | down | page"
HCI3: "scroll | up | page"
HCI4: "scroll | down | page"

patchTag: "Google All"
domain: "google.com"
pid: "patch_016_8"
patchType: "SERP"
start: "06:43"
end: "07:00"
HCI1: "scroll | down | page"
HCI2: "scroll | up | page"
HCI3: "type | origin of covid-19 virus uk government | search bar"
HCI4: "type | enter | search bar"

patchTag: "Google All"
domain: "google.com"
pid: "patch_016_10"
patchType: "SERP"
start: "07:01"
end: "07:13"
HCI1: "hover | COVID-19: background information - GOV.UK | result 1 title"
HCI2: "hover | COVID-19: epidemiology, virology and clinical features | result 1 subtitle"
HCI3: "click | COVID-19: background information - GOV.UK | result 1 title"

patchTag: "GOV.UK"
domain: "gov.uk"
pid: "patch_016_11"
patchType: "page"
start: "07:14"
end: "07:20"
HCI1: "scroll | down | page"
HCI2: "scroll | up | page"
HCI3: "click | COVID-19: epidemilogy, virology and clinical features | hyperlink"

patchTag: "GOV.UK"
domain: "gov.uk"
pid: "patch_016_12"
patchType: "page"
start: "07:21"
end: "07:47"
HCI1: "scroll | down | page"

patchTag: "GOV.UK"
domain: "gov.uk"
pid: "patch_016_11"
patchType: "page"
start: "07:48"
end: "07:50"

patchTag: "Google All"
domain: "google.com"
pid: "patch_016_10"
patchType: "SERP"
start: "07:51"
end: "08:03"
HCI1: "type | origin of covid-19 virus contraversy | search bar"
HCI2: "type | enter | search bar"

patchTag: "Google All"
domain: "google.com"
pid: "patch_016_13"
patchType: "SERP"
start: "08:04"
end: "08:16"
HCI1: "scroll | down | page"
HCI2: "click | Why it's so tricky to trace the origin of COVID-19 | result 5 title"

patchTag: "National Geographic"
domain: "nationalgeographic.com"
pid: "patch_016_14"
patchType: "page"
start: "08:17"
end: "08:33"
HCI1: "scroll | down | page"
HCI2: "click | one-page unclassified summary | hyperlink"

patchTag: "Director of National Intelligence"
domain: "dni.gov"
pid: "patch_016_15"
patchType: "file"
start: "08:34"
end: "09:16"
HCI1: "scroll | down | page"
HCI2: "scroll | up | page"

patchTag: "National Geographic"
domain: "nationalgeographic.com"
pid: "patch_016_14"
patchType: "page"
start: "09:17"
end: "09:24"
HCI1: "scroll | down | page"
HCI2: "click | continue | pop-up"

patchTag: "Google All"
domain: "google.com"
pid: "patch_016_13"
patchType: "SERP"
start: "09:25"
end: "09:29"
HCI1: "scroll | down | page"
HCI2: "click | 'Tit for that': why hunt for Cocid's origins still mired in politics and... | result 8 title"

patchTag: "The Guardian"
domain: "theguardian.com"
pid: "patch_016_16"
patchType: "page"
start: "09:30"
end: "10:07"
HCI1: "click | close | pop-up"
HCI2: "scroll | down | page"

