<?xml version="1.0" encoding="UTF-8" standalone="no"?>
<!DOCTYPE svg PUBLIC "-//W3C//DTD SVG 1.1//EN" "http://www.w3.org/Graphics/SVG/1.1/DTD/svg11.dtd">
<!-- Generated by graphviz version 2.40.1 (20161225.0304)
 -->
<!-- Title: %0 Pages: 1 -->
<svg width="434pt" height="222pt" viewBox="0.00 0.00 434.46 221.60" xmlns="http://www.w3.org/2000/svg" xmlns:xlink="http://www.w3.org/1999/xlink">
<g id="graph0" class="graph" transform="scale(1 1) rotate(0) translate(4 217.6)">
<title>%0</title>
<polygon fill="#ffffff" stroke="transparent" points="-4,4 -4,-217.6 430.4558,-217.6 430.4558,4 -4,4"/>
<!-- academia -->
<g id="node1" class="node">
<title>academia</title>
<ellipse fill="none" stroke="#000000" cx="143.8738" cy="-195.6" rx="52.7854" ry="18"/>
<text text-anchor="middle" x="143.8738" y="-191.4" font-family="Arial" font-size="14.00" fill="#000000">academia</text>
</g>
<!-- academia&#45;&gt;academia -->
<g id="edge1" class="edge">
<title>academia-&gt;academia</title>
<path fill="none" stroke="#000000" stroke-width="1.8462" d="M191.2502,-203.8092C204.5541,-203.4497 214.7664,-200.7133 214.7664,-195.6 214.7664,-191.8849 209.3754,-189.4245 201.3245,-188.2189"/>
<polygon fill="#000000" stroke="#000000" stroke-width="1.8462" points="201.5033,-184.7218 191.2502,-187.3908 200.9298,-191.6983 201.5033,-184.7218"/>
<text text-anchor="middle" x="240.0574" y="-191.4" font-family="Arial" font-size="14.00" fill="#000000">  0.62    </text>
</g>
<!-- engine_SERP -->
<g id="node2" class="node">
<title>engine_SERP</title>
<ellipse fill="none" stroke="#000000" cx="217.8738" cy="-106.8" rx="71.8628" ry="18"/>
<text text-anchor="middle" x="217.8738" y="-102.6" font-family="Arial" font-size="14.00" fill="#000000">engine_SERP</text>
</g>
<!-- academia&#45;&gt;engine_SERP -->
<g id="edge2" class="edge">
<title>academia-&gt;engine_SERP</title>
<path fill="none" stroke="#000000" stroke-width=".4615" d="M172.1925,-180.2382C180.6487,-174.611 189.3836,-167.6254 195.8738,-159.6 201.8626,-152.1945 206.4519,-142.9272 209.8497,-134.2325"/>
<polygon fill="#000000" stroke="#000000" stroke-width=".4615" points="213.155,-135.3836 213.1909,-124.7888 206.5558,-133.0488 213.155,-135.3836"/>
<text text-anchor="middle" x="231.1648" y="-147" font-family="Arial" font-size="14.00" fill="#000000">  0.15    </text>
</g>
<!-- scicomm -->
<g id="node3" class="node">
<title>scicomm</title>
<ellipse fill="none" stroke="#000000" cx="102.8738" cy="-18" rx="49.2396" ry="18"/>
<text text-anchor="middle" x="102.8738" y="-13.8" font-family="Arial" font-size="14.00" fill="#000000">scicomm</text>
</g>
<!-- academia&#45;&gt;scicomm -->
<g id="edge3" class="edge">
<title>academia-&gt;scicomm</title>
<path fill="none" stroke="#000000" stroke-width=".6923" d="M98.5567,-186.219C65.9774,-176.7879 24.5346,-158.6129 5.2918,-124.8 -14.4932,-90.0343 28.1096,-57.1891 63.1304,-37.3311"/>
<polygon fill="#000000" stroke="#000000" stroke-width=".6923" points="65.1909,-40.1936 72.2874,-32.3265 61.8338,-34.0511 65.1909,-40.1936"/>
<text text-anchor="middle" x="31.1648" y="-102.6" font-family="Arial" font-size="14.00" fill="#000000">  0.23    </text>
</g>
<!-- engine_SERP&#45;&gt;academia -->
<g id="edge4" class="edge">
<title>engine_SERP-&gt;academia</title>
<path fill="none" stroke="#000000" stroke-width=".8571" d="M168.7791,-119.9903C157.9266,-125.2813 147.7488,-132.6298 141.2918,-142.8 136.6755,-150.071 135.7906,-159.1064 136.5218,-167.6356"/>
<polygon fill="#000000" stroke="#000000" stroke-width=".8571" points="133.0814,-168.2904 138.0729,-177.6357 139.9987,-167.2173 133.0814,-168.2904"/>
<text text-anchor="middle" x="167.1648" y="-147" font-family="Arial" font-size="14.00" fill="#000000">  0.29    </text>
</g>
<!-- engine_SERP&#45;&gt;engine_SERP -->
<g id="edge5" class="edge">
<title>engine_SERP-&gt;engine_SERP</title>
<path fill="none" stroke="#000000" stroke-width="1.2857" d="M281.9609,-114.8682C296.7161,-114.173 307.5549,-111.4836 307.5549,-106.8 307.5549,-103.2873 301.4581,-100.8963 292.1848,-99.6271"/>
<polygon fill="#000000" stroke="#000000" stroke-width="1.2857" points="292.2281,-96.1176 281.9609,-98.7318 291.6174,-103.0909 292.2281,-96.1176"/>
<text text-anchor="middle" x="332.8459" y="-102.6" font-family="Arial" font-size="14.00" fill="#000000">  0.43    </text>
</g>
<!-- engine_SERP&#45;&gt;scicomm -->
<g id="edge7" class="edge">
<title>engine_SERP-&gt;scicomm</title>
<path fill="none" stroke="#000000" stroke-width=".4286" d="M173.1914,-92.671C160.3599,-87.2008 146.9659,-79.9942 136.2918,-70.8 127.9694,-63.6315 121.0027,-53.8741 115.6212,-44.697"/>
<polygon fill="#000000" stroke="#000000" stroke-width=".4286" points="118.643,-42.9278 110.7765,-35.8307 112.5002,-46.2844 118.643,-42.9278"/>
<text text-anchor="middle" x="162.1648" y="-58.2" font-family="Arial" font-size="14.00" fill="#000000">  0.14    </text>
</g>
<!-- government -->
<g id="node4" class="node">
<title>government</title>
<ellipse fill="none" stroke="#000000" cx="348.8738" cy="-18" rx="62.033" ry="18"/>
<text text-anchor="middle" x="348.8738" y="-13.8" font-family="Arial" font-size="14.00" fill="#000000">government</text>
</g>
<!-- engine_SERP&#45;&gt;government -->
<g id="edge6" class="edge">
<title>engine_SERP-&gt;government</title>
<path fill="none" stroke="#000000" stroke-width=".4286" d="M242.8222,-89.8884C263.6232,-75.7882 293.4197,-55.5902 316.1357,-40.1919"/>
<polygon fill="#000000" stroke="#000000" stroke-width=".4286" points="318.148,-43.0562 324.4617,-34.5481 314.2203,-37.262 318.148,-43.0562"/>
<text text-anchor="middle" x="320.1648" y="-58.2" font-family="Arial" font-size="14.00" fill="#000000">  0.14    </text>
</g>
<!-- scicomm&#45;&gt;academia -->
<g id="edge9" class="edge">
<title>scicomm-&gt;academia</title>
<path fill="none" stroke="#000000" stroke-width="1.5" d="M94.9013,-35.8841C86.4286,-57.5085 75.6119,-94.7425 86.2918,-124.8 92.5296,-142.3559 105.1867,-158.7222 117.0495,-171.2874"/>
<polygon fill="#000000" stroke="#000000" stroke-width="1.5" points="114.7513,-173.9413 124.2686,-178.5965 119.7316,-169.0222 114.7513,-173.9413"/>
<text text-anchor="middle" x="112.1648" y="-102.6" font-family="Arial" font-size="14.00" fill="#000000">  0.50    </text>
</g>
<!-- scicomm&#45;&gt;engine_SERP -->
<g id="edge10" class="edge">
<title>scicomm-&gt;engine_SERP</title>
<path fill="none" stroke="#000000" stroke-width="1.5" d="M142.1732,-28.9824C157.3732,-34.6445 174.1374,-42.7752 186.8738,-54 194.8049,-60.9898 201.2524,-70.5175 206.1719,-79.5562"/>
<polygon fill="#000000" stroke="#000000" stroke-width="1.5" points="203.1319,-81.302 210.7437,-88.6716 209.389,-78.1637 203.1319,-81.302"/>
<text text-anchor="middle" x="226.1648" y="-58.2" font-family="Arial" font-size="14.00" fill="#000000">  0.50    </text>
</g>
<!-- government&#45;&gt;academia -->
<g id="edge8" class="edge">
<title>government-&gt;academia</title>
<path fill="none" stroke="#000000" stroke-width="3" d="M359.3402,-36.0917C371.0258,-58.9428 385.9539,-98.4539 366.8738,-124.8 347.2229,-151.9342 260.3061,-173.4963 200.9699,-185.4009"/>
<polygon fill="#000000" stroke="#000000" stroke-width="3" points="200.1032,-182.0043 190.9672,-187.3693 201.4548,-188.8726 200.1032,-182.0043"/>
<text text-anchor="middle" x="401.1648" y="-102.6" font-family="Arial" font-size="14.00" fill="#000000">  1.00    </text>
</g>
</g>
</svg>