<?xml version="1.0" encoding="UTF-8" standalone="no"?>
<!DOCTYPE svg PUBLIC "-//W3C//DTD SVG 1.1//EN" "http://www.w3.org/Graphics/SVG/1.1/DTD/svg11.dtd">
<!-- Generated by graphviz version 2.40.1 (20161225.0304)
 -->
<!-- Title: %0 Pages: 1 -->
<svg width="302pt" height="222pt" viewBox="0.00 0.00 302.15 221.60" xmlns="http://www.w3.org/2000/svg" xmlns:xlink="http://www.w3.org/1999/xlink">
<g id="graph0" class="graph" transform="scale(1 1) rotate(0) translate(4 217.6)">
<title>%0</title>
<polygon fill="#ffffff" stroke="transparent" points="-4,4 -4,-217.6 298.1549,-217.6 298.1549,4 -4,4"/>
<!-- engine_SERP -->
<g id="node1" class="node">
<title>engine_SERP</title>
<ellipse fill="none" stroke="#000000" cx="144.5729" cy="-195.6" rx="71.8628" ry="18"/>
<text text-anchor="middle" x="144.5729" y="-191.4" font-family="Arial" font-size="14.00" fill="#000000">engine_SERP</text>
</g>
<!-- engine_SERP&#45;&gt;engine_SERP -->
<g id="edge1" class="edge">
<title>engine_SERP-&gt;engine_SERP</title>
<path fill="none" stroke="#000000" stroke-width=".75" d="M208.66,-203.6682C223.4152,-202.973 234.2541,-200.2836 234.2541,-195.6 234.2541,-192.0873 228.1572,-189.6963 218.8839,-188.4271"/>
<polygon fill="#000000" stroke="#000000" stroke-width=".75" points="218.9272,-184.9176 208.66,-187.5318 218.3165,-191.8909 218.9272,-184.9176"/>
<text text-anchor="middle" x="259.5451" y="-191.4" font-family="Arial" font-size="14.00" fill="#000000">  0.25    </text>
</g>
<!-- news -->
<g id="node2" class="node">
<title>news</title>
<ellipse fill="none" stroke="#000000" cx="33.5729" cy="-106.8" rx="33.646" ry="18"/>
<text text-anchor="middle" x="33.5729" y="-102.6" font-family="Arial" font-size="14.00" fill="#000000">news</text>
</g>
<!-- engine_SERP&#45;&gt;news -->
<g id="edge2" class="edge">
<title>engine_SERP-&gt;news</title>
<path fill="none" stroke="#000000" stroke-width=".75" d="M91.5979,-183.3228C77.61,-177.96 63.5032,-170.3475 52.9909,-159.6 46.3418,-152.8022 41.9416,-143.5381 39.0415,-134.6669"/>
<polygon fill="#000000" stroke="#000000" stroke-width=".75" points="42.3996,-133.6784 36.3646,-124.9704 35.652,-135.5413 42.3996,-133.6784"/>
<text text-anchor="middle" x="78.8639" y="-147" font-family="Arial" font-size="14.00" fill="#000000">  0.25    </text>
</g>
<!-- scicomm -->
<g id="node3" class="node">
<title>scicomm</title>
<ellipse fill="none" stroke="#000000" cx="162.5729" cy="-106.8" rx="49.2396" ry="18"/>
<text text-anchor="middle" x="162.5729" y="-102.6" font-family="Arial" font-size="14.00" fill="#000000">scicomm</text>
</g>
<!-- engine_SERP&#45;&gt;scicomm -->
<g id="edge3" class="edge">
<title>engine_SERP-&gt;scicomm</title>
<path fill="none" stroke="#000000" stroke-width="1.5" d="M121.2978,-178.0904C110.9583,-168.0744 102.441,-155.0917 108.9909,-142.8 112.2841,-136.62 117.1618,-131.3122 122.6544,-126.8189"/>
<polygon fill="#000000" stroke="#000000" stroke-width="1.5" points="124.943,-129.4845 131.0286,-120.8118 120.8629,-123.7966 124.943,-129.4845"/>
<text text-anchor="middle" x="134.8639" y="-147" font-family="Arial" font-size="14.00" fill="#000000">  0.50    </text>
</g>
<!-- scicomm&#45;&gt;engine_SERP -->
<g id="edge5" class="edge">
<title>scicomm-&gt;engine_SERP</title>
<path fill="none" stroke="#000000" stroke-width="1.5" d="M163.0413,-125.0961C162.9299,-135.3581 162.1627,-148.325 159.5729,-159.6 158.9193,-162.4458 158.0602,-165.3544 157.0834,-168.2239"/>
<polygon fill="#000000" stroke="#000000" stroke-width="1.5" points="153.7689,-167.0916 153.4367,-177.6812 160.3002,-169.6101 153.7689,-167.0916"/>
<text text-anchor="middle" x="187.8639" y="-147" font-family="Arial" font-size="14.00" fill="#000000">  0.50    </text>
</g>
<!-- government -->
<g id="node4" class="node">
<title>government</title>
<ellipse fill="none" stroke="#000000" cx="205.5729" cy="-18" rx="62.033" ry="18"/>
<text text-anchor="middle" x="205.5729" y="-13.8" font-family="Arial" font-size="14.00" fill="#000000">government</text>
</g>
<!-- scicomm&#45;&gt;government -->
<g id="edge6" class="edge">
<title>scicomm-&gt;government</title>
<path fill="none" stroke="#000000" stroke-width="1.5" d="M168.5543,-88.8349C172.2496,-78.4465 177.3541,-65.2465 182.9909,-54 184.5591,-50.8711 186.3216,-47.6657 188.1524,-44.5195"/>
<polygon fill="#000000" stroke="#000000" stroke-width="1.5" points="191.1759,-46.2837 193.3887,-35.9225 185.1976,-42.6423 191.1759,-46.2837"/>
<text text-anchor="middle" x="208.8639" y="-58.2" font-family="Arial" font-size="14.00" fill="#000000">  0.50    </text>
</g>
<!-- government&#45;&gt;engine_SERP -->
<g id="edge4" class="edge">
<title>government-&gt;engine_SERP</title>
<path fill="none" stroke="#000000" stroke-width="3" d="M223.0002,-35.6478C227.2964,-41.0959 231.3116,-47.4094 233.5729,-54 248.9783,-98.8997 246.1285,-121.6805 217.5729,-159.6 212.4407,-166.4152 205.6689,-172.0182 198.3164,-176.6016"/>
<polygon fill="#000000" stroke="#000000" stroke-width="3" points="196.513,-173.5998 189.4819,-181.5254 199.9208,-179.7143 196.513,-173.5998"/>
<text text-anchor="middle" x="268.8639" y="-102.6" font-family="Arial" font-size="14.00" fill="#000000">  1.00    </text>
</g>
</g>
</svg>