<?xml version="1.0" encoding="UTF-8" standalone="no"?>
<!DOCTYPE svg PUBLIC "-//W3C//DTD SVG 1.1//EN" "http://www.w3.org/Graphics/SVG/1.1/DTD/svg11.dtd">
<!-- Generated by graphviz version 2.40.1 (20161225.0304)
 -->
<!-- Title: %0 Pages: 1 -->
<svg width="316pt" height="222pt" viewBox="0.00 0.00 316.14 221.60" xmlns="http://www.w3.org/2000/svg" xmlns:xlink="http://www.w3.org/1999/xlink">
<g id="graph0" class="graph" transform="scale(1 1) rotate(0) translate(4 217.6)">
<title>%0</title>
<polygon fill="#ffffff" stroke="transparent" points="-4,4 -4,-217.6 312.1361,-217.6 312.1361,4 -4,4"/>
<!-- engine_SERP -->
<g id="node1" class="node">
<title>engine_SERP</title>
<ellipse fill="none" stroke="#000000" cx="136.0165" cy="-106.8" rx="71.8628" ry="18"/>
<text text-anchor="middle" x="136.0165" y="-102.6" font-family="Arial" font-size="14.00" fill="#000000">engine_SERP</text>
</g>
<!-- engine_SERP&#45;&gt;engine_SERP -->
<g id="edge1" class="edge">
<title>engine_SERP-&gt;engine_SERP</title>
<path fill="none" stroke="#000000" stroke-width="1" d="M200.1036,-114.8682C214.8588,-114.173 225.6976,-111.4836 225.6976,-106.8 225.6976,-103.2873 219.6008,-100.8963 210.3275,-99.6271"/>
<polygon fill="#000000" stroke="#000000" stroke-width="1" points="210.3708,-96.1176 200.1036,-98.7318 209.7601,-103.0909 210.3708,-96.1176"/>
<text text-anchor="middle" x="250.9886" y="-102.6" font-family="Arial" font-size="14.00" fill="#000000">  0.33    </text>
</g>
<!-- government -->
<g id="node2" class="node">
<title>government</title>
<ellipse fill="none" stroke="#000000" cx="62.0165" cy="-18" rx="62.033" ry="18"/>
<text text-anchor="middle" x="62.0165" y="-13.8" font-family="Arial" font-size="14.00" fill="#000000">government</text>
</g>
<!-- engine_SERP&#45;&gt;government -->
<g id="edge2" class="edge">
<title>engine_SERP-&gt;government</title>
<path fill="none" stroke="#000000" stroke-width="1" d="M89.612,-92.9846C79.3239,-87.7056 69.6451,-80.5192 63.4345,-70.8 58.8008,-63.5486 57.3738,-54.5184 57.4251,-45.988"/>
<polygon fill="#000000" stroke="#000000" stroke-width="1" points="60.9188,-46.198 58.1047,-35.9837 53.9349,-45.7235 60.9188,-46.198"/>
<text text-anchor="middle" x="89.3075" y="-58.2" font-family="Arial" font-size="14.00" fill="#000000">  0.33    </text>
</g>
<!-- scicomm -->
<g id="node3" class="node">
<title>scicomm</title>
<ellipse fill="none" stroke="#000000" cx="259.0165" cy="-18" rx="49.2396" ry="18"/>
<text text-anchor="middle" x="259.0165" y="-13.8" font-family="Arial" font-size="14.00" fill="#000000">scicomm</text>
</g>
<!-- engine_SERP&#45;&gt;scicomm -->
<g id="edge3" class="edge">
<title>engine_SERP-&gt;scicomm</title>
<path fill="none" stroke="#000000" stroke-width="1" d="M159.7321,-89.6785C179.2433,-75.5924 207.0384,-55.5256 228.2592,-40.2052"/>
<polygon fill="#000000" stroke="#000000" stroke-width="1" points="230.5581,-42.8624 236.6173,-34.1711 226.4607,-37.1869 230.5581,-42.8624"/>
<text text-anchor="middle" x="234.3075" y="-58.2" font-family="Arial" font-size="14.00" fill="#000000">  0.33    </text>
</g>
<!-- government&#45;&gt;engine_SERP -->
<g id="edge4" class="edge">
<title>government-&gt;engine_SERP</title>
<path fill="none" stroke="#000000" stroke-width="1.5" d="M91.1456,-33.9047C99.3467,-39.436 107.7335,-46.2307 114.0165,-54 120.0053,-61.4055 124.5946,-70.6728 127.9924,-79.3675"/>
<polygon fill="#000000" stroke="#000000" stroke-width="1.5" points="124.6986,-80.5512 131.3336,-88.8112 131.2977,-78.2164 124.6986,-80.5512"/>
<text text-anchor="middle" x="149.3075" y="-58.2" font-family="Arial" font-size="14.00" fill="#000000">  0.50    </text>
</g>
<!-- government&#45;&gt;government -->
<g id="edge5" class="edge">
<title>government-&gt;government</title>
<path fill="none" stroke="#000000" stroke-width="1.5" d="M117.3639,-26.1513C131.4546,-25.6155 142.033,-22.8984 142.033,-18 142.033,-14.3644 136.206,-11.9305 127.4407,-10.698"/>
<polygon fill="#000000" stroke="#000000" stroke-width="1.5" points="127.6226,-7.201 117.3639,-9.8487 127.0346,-14.1763 127.6226,-7.201"/>
<text text-anchor="middle" x="167.324" y="-13.8" font-family="Arial" font-size="14.00" fill="#000000">  0.50    </text>
</g>
<!-- other -->
<g id="node4" class="node">
<title>other</title>
<ellipse fill="none" stroke="#000000" cx="136.0165" cy="-195.6" rx="33.0798" ry="18"/>
<text text-anchor="middle" x="136.0165" y="-191.4" font-family="Arial" font-size="14.00" fill="#000000">other</text>
</g>
<!-- other&#45;&gt;engine_SERP -->
<g id="edge6" class="edge">
<title>other-&gt;engine_SERP</title>
<path fill="none" stroke="#000000" stroke-width="3" d="M136.0165,-177.2006C136.0165,-165.0949 136.0165,-149.0076 136.0165,-135.2674"/>
<polygon fill="#000000" stroke="#000000" stroke-width="3" points="139.5166,-134.872 136.0165,-124.872 132.5166,-134.8721 139.5166,-134.872"/>
<text text-anchor="middle" x="161.3075" y="-147" font-family="Arial" font-size="14.00" fill="#000000">  1.00    </text>
</g>
</g>
</svg>