<?xml version="1.0" encoding="UTF-8" standalone="no"?>
<!DOCTYPE svg PUBLIC "-//W3C//DTD SVG 1.1//EN" "http://www.w3.org/Graphics/SVG/1.1/DTD/svg11.dtd">
<!-- Generated by graphviz version 2.40.1 (20161225.0304)
 -->
<!-- Title: %0 Pages: 1 -->
<svg width="220pt" height="133pt" viewBox="0.00 0.00 219.94 132.80" xmlns="http://www.w3.org/2000/svg" xmlns:xlink="http://www.w3.org/1999/xlink">
<g id="graph0" class="graph" transform="scale(1 1) rotate(0) translate(4 128.8)">
<title>%0</title>
<polygon fill="#ffffff" stroke="transparent" points="-4,4 -4,-128.8 215.9443,-128.8 215.9443,4 -4,4"/>
<!-- academia -->
<g id="node1" class="node">
<title>academia</title>
<ellipse fill="none" stroke="#000000" cx="71.6812" cy="-106.8" rx="52.7854" ry="18"/>
<text text-anchor="middle" x="71.6812" y="-102.6" font-family="Arial" font-size="14.00" fill="#000000">academia</text>
</g>
<!-- academia&#45;&gt;academia -->
<g id="edge1" class="edge">
<title>academia-&gt;academia</title>
<path fill="none" stroke="#000000" stroke-width="1.6667" d="M119.0575,-115.0092C132.3615,-114.6497 142.5738,-111.9133 142.5738,-106.8 142.5738,-103.0849 137.1828,-100.6245 129.1319,-99.4189"/>
<polygon fill="#000000" stroke="#000000" stroke-width="1.6667" points="129.3107,-95.9218 119.0575,-98.5908 128.7372,-102.8983 129.3107,-95.9218"/>
<text text-anchor="middle" x="167.8648" y="-102.6" font-family="Arial" font-size="14.00" fill="#000000">  0.56    </text>
</g>
<!-- engine_SERP -->
<g id="node2" class="node">
<title>engine_SERP</title>
<ellipse fill="none" stroke="#000000" cx="71.6812" cy="-18" rx="71.8628" ry="18"/>
<text text-anchor="middle" x="71.6812" y="-13.8" font-family="Arial" font-size="14.00" fill="#000000">engine_SERP</text>
</g>
<!-- academia&#45;&gt;engine_SERP -->
<g id="edge2" class="edge">
<title>academia-&gt;engine_SERP</title>
<path fill="none" stroke="#000000" stroke-width="1.3333" d="M49.9912,-90.248C44.3944,-84.737 39.1044,-78.1157 36.0992,-70.8 32.1522,-61.1919 35.897,-51.5233 42.2187,-43.1332"/>
<polygon fill="#000000" stroke="#000000" stroke-width="1.3333" points="44.9322,-45.3474 48.9022,-35.5245 39.6731,-40.7277 44.9322,-45.3474"/>
<text text-anchor="middle" x="61.9722" y="-58.2" font-family="Arial" font-size="14.00" fill="#000000">  0.44    </text>
</g>
<!-- engine_SERP&#45;&gt;academia -->
<g id="edge3" class="edge">
<title>engine_SERP-&gt;academia</title>
<path fill="none" stroke="#000000" stroke-width="1.3636" d="M80.7577,-35.8731C83.1787,-41.5245 85.4595,-47.8918 86.6812,-54 88.1455,-61.3217 88.1455,-63.4783 86.6812,-70.8 86.1085,-73.6632 85.3031,-76.5834 84.3597,-79.46"/>
<polygon fill="#000000" stroke="#000000" stroke-width="1.3636" points="81.0427,-78.3359 80.7577,-88.9269 87.5851,-80.8252 81.0427,-78.3359"/>
<text text-anchor="middle" x="112.9722" y="-58.2" font-family="Arial" font-size="14.00" fill="#000000">  0.45    </text>
</g>
<!-- engine_SERP&#45;&gt;engine_SERP -->
<g id="edge4" class="edge">
<title>engine_SERP-&gt;engine_SERP</title>
<path fill="none" stroke="#000000" stroke-width="1.6364" d="M135.7682,-26.0682C150.5235,-25.373 161.3623,-22.6836 161.3623,-18 161.3623,-14.4873 155.2655,-12.0963 145.9922,-10.8271"/>
<polygon fill="#000000" stroke="#000000" stroke-width="1.6364" points="146.0355,-7.3176 135.7682,-9.9318 145.4248,-14.2909 146.0355,-7.3176"/>
<text text-anchor="middle" x="186.6533" y="-13.8" font-family="Arial" font-size="14.00" fill="#000000">  0.55    </text>
</g>
</g>
</svg>